\relax 
\providecommand\hyper@newdestlabel[2]{}
\providecommand\HyperFirstAtBeginDocument{\AtBeginDocument}
\HyperFirstAtBeginDocument{\ifx\hyper@anchor\@undefined
\global\let\oldcontentsline\contentsline
\gdef\contentsline#1#2#3#4{\oldcontentsline{#1}{#2}{#3}}
\global\let\oldnewlabel\newlabel
\gdef\newlabel#1#2{\newlabelxx{#1}#2}
\gdef\newlabelxx#1#2#3#4#5#6{\oldnewlabel{#1}{{#2}{#3}}}
\AtEndDocument{\ifx\hyper@anchor\@undefined
\let\contentsline\oldcontentsline
\let\newlabel\oldnewlabel
\fi}
\fi}
\global\let\hyper@last\relax 
\gdef\HyperFirstAtBeginDocument#1{#1}
\providecommand\HyField@AuxAddToFields[1]{}
\providecommand\HyField@AuxAddToCoFields[2]{}
\@writefile{toc}{\contentsline {chapter}{Abstract}{ii}{chapter*.2}\protected@file@percent }
\@writefile{toc}{\contentsline {chapter}{Acknowledgements}{iii}{chapter*.3}\protected@file@percent }
\@writefile{toc}{\contentsline {chapter}{List of Figures}{iv}{chapter*.4}\protected@file@percent }
\@writefile{toc}{\contentsline {chapter}{List of Tables}{v}{chapter*.5}\protected@file@percent }
\@writefile{toc}{\contentsline {chapter}{\numberline {1}Introduction}{1}{chapter.1}\protected@file@percent }
\@writefile{lof}{\addvspace {10\p@ }}
\@writefile{lot}{\addvspace {10\p@ }}
\@writefile{toc}{\contentsline {chapter}{\numberline {2}Functional data}{2}{chapter.2}\protected@file@percent }
\@writefile{lof}{\addvspace {10\p@ }}
\@writefile{lot}{\addvspace {10\p@ }}
\@writefile{toc}{\contentsline {section}{\numberline {2.1}Some theoretical results on functional time series}{2}{section.2.1}\protected@file@percent }
\newlabel{f1}{{2.1}{2}{Some theoretical results on functional time series}{equation.2.1.1}{}}
\newlabel{f1@cref}{{[equation][1][2]2.1}{[1][2][]2}}
\newlabel{f2}{{2.2}{3}{Some theoretical results on functional time series}{equation.2.1.2}{}}
\newlabel{f2@cref}{{[equation][2][2]2.2}{[1][2][]3}}
\newlabel{phi1}{{2.3}{4}{Some theoretical results on functional time series}{equation.2.1.3}{}}
\newlabel{phi1@cref}{{[equation][3][2]2.3}{[1][4][]4}}
\newlabel{ph1}{{2.4}{4}{Some theoretical results on functional time series}{equation.2.1.4}{}}
\newlabel{ph1@cref}{{[equation][4][2]2.4}{[1][4][]4}}
\newlabel{xide1}{{2.5}{5}{Some theoretical results on functional time series}{equation.2.1.5}{}}
\newlabel{xide1@cref}{{[equation][5][2]2.5}{[1][5][]5}}
\newlabel{xide2}{{2.6}{5}{Some theoretical results on functional time series}{equation.2.1.6}{}}
\newlabel{xide2@cref}{{[equation][6][2]2.6}{[1][5][]5}}
\newlabel{crow}{{2.7}{7}{Some theoretical results on functional time series}{equation.2.1.7}{}}
\newlabel{crow@cref}{{[equation][7][2]2.7}{[1][6][]7}}
\@writefile{toc}{\contentsline {chapter}{\numberline {3}EPA Criteria Pollutants}{8}{chapter.3}\protected@file@percent }
\@writefile{lof}{\addvspace {10\p@ }}
\@writefile{lot}{\addvspace {10\p@ }}
\@writefile{toc}{\contentsline {section}{\numberline {3.1}EPA pollutant summary data}{8}{section.3.1}\protected@file@percent }
\newlabel{imp}{{3.1}{9}{EPA pollutant summary data}{equation.3.1.1}{}}
\newlabel{imp@cref}{{[equation][1][3]3.1}{[1][9][]9}}
\@writefile{toc}{\contentsline {section}{\numberline {3.2}Carbon Monoxide}{9}{section.3.2}\protected@file@percent }
\@writefile{lof}{\contentsline {figure}{\numberline {3.1}{\ignorespaces Labeled map of the CO monitoring sites in Salt Lake County.\relax }}{10}{figure.caption.6}\protected@file@percent }
\providecommand*\caption@xref[2]{\@setref\relax\@undefined{#1}}
\newlabel{smap}{{3.1}{10}{Labeled map of the CO monitoring sites in Salt Lake County.\relax }{figure.caption.6}{}}
\newlabel{smap@cref}{{[figure][1][3]3.1}{[1][10][]10}}
\@writefile{lof}{\contentsline {figure}{\numberline {3.2}{\ignorespaces 3D histogram of daily CO levels (ppm) from 1980--2020\relax }}{11}{figure.caption.7}\protected@file@percent }
\newlabel{cohist3d}{{3.2}{11}{3D histogram of daily CO levels (ppm) from 1980--2020\relax }{figure.caption.7}{}}
\newlabel{cohist3d@cref}{{[figure][2][3]3.2}{[1][10][]11}}
\@writefile{lof}{\contentsline {figure}{\numberline {3.3}{\ignorespaces 2D histogram of daily CO levels (ppm) before imputation from 1980--2020\relax }}{12}{figure.caption.8}\protected@file@percent }
\newlabel{cohist2draw}{{3.3}{12}{2D histogram of daily CO levels (ppm) before imputation from 1980--2020\relax }{figure.caption.8}{}}
\newlabel{cohist2draw@cref}{{[figure][3][3]3.3}{[1][11][]12}}
\@writefile{lof}{\contentsline {figure}{\numberline {3.4}{\ignorespaces 2D histogram of daily CO levels (ppm) after imputation from 1980--2020\relax }}{12}{figure.caption.8}\protected@file@percent }
\newlabel{cohist2d}{{3.4}{12}{2D histogram of daily CO levels (ppm) after imputation from 1980--2020\relax }{figure.caption.8}{}}
\newlabel{cohist2d@cref}{{[figure][4][3]3.4}{[1][11][]12}}
\@writefile{toc}{\contentsline {section}{\numberline {3.3}Particulate Matter 2.5}{12}{section.3.3}\protected@file@percent }
\@writefile{lof}{\contentsline {figure}{\numberline {3.5}{\ignorespaces Labeled map of the PM$_{2.5}$ monitoring sites in Salt Lake County.\relax }}{13}{figure.caption.9}\protected@file@percent }
\newlabel{pm25map}{{3.5}{13}{Labeled map of the PM$_{2.5}$ monitoring sites in Salt Lake County.\relax }{figure.caption.9}{}}
\newlabel{pm25map@cref}{{[figure][5][3]3.5}{[1][13][]13}}
\@writefile{lof}{\contentsline {figure}{\numberline {3.6}{\ignorespaces 3D histogram of daily PM$_{2.5}$ levels ($\mu $g/m$^{3}$) from 1999--2020\relax }}{14}{figure.caption.10}\protected@file@percent }
\newlabel{pm253dhist}{{3.6}{14}{3D histogram of daily PM$_{2.5}$ levels ($\mu $g/m$^{3}$) from 1999--2020\relax }{figure.caption.10}{}}
\newlabel{pm253dhist@cref}{{[figure][6][3]3.6}{[1][14][]14}}
\@writefile{lof}{\contentsline {figure}{\numberline {3.7}{\ignorespaces 2D histogram of daily PM$_{2.5}$ levels ($\mu $g/m$^{3}$) before imputation from 1999--2020\relax }}{15}{figure.caption.11}\protected@file@percent }
\@writefile{lof}{\contentsline {figure}{\numberline {3.8}{\ignorespaces 2D histogram of daily PM$_{2.5}$ levels ($\mu $g/m$^{3}$) after imputation from 1999--2020\relax }}{15}{figure.caption.11}\protected@file@percent }
\@writefile{toc}{\contentsline {section}{\numberline {3.4}Sulfur Dioxide}{15}{section.3.4}\protected@file@percent }
\@writefile{lof}{\contentsline {figure}{\numberline {3.9}{\ignorespaces Labeled map of the SO$_{2}$ monitoring sites in Salt Lake County.\relax }}{16}{figure.caption.12}\protected@file@percent }
\newlabel{so2map}{{3.9}{16}{Labeled map of the SO$_{2}$ monitoring sites in Salt Lake County.\relax }{figure.caption.12}{}}
\newlabel{so2map@cref}{{[figure][9][3]3.9}{[1][15][]16}}
\@writefile{lof}{\contentsline {figure}{\numberline {3.10}{\ignorespaces 3D histogram of daily SO$_{2}$ levels (ppb) from 1980--2020\relax }}{17}{figure.caption.13}\protected@file@percent }
\newlabel{so23dhist}{{3.10}{17}{3D histogram of daily SO$_{2}$ levels (ppb) from 1980--2020\relax }{figure.caption.13}{}}
\newlabel{so23dhist@cref}{{[figure][10][3]3.10}{[1][15][]17}}
\@writefile{lof}{\contentsline {figure}{\numberline {3.11}{\ignorespaces 2D histogram of daily SO$_{2}$ levels (ppb) after imputation from 1980--2020\relax }}{18}{figure.caption.14}\protected@file@percent }
\@writefile{lof}{\contentsline {figure}{\numberline {3.12}{\ignorespaces 2D histogram of daily SO$_{2}$ levels (ppb) after imputation from 1980--2020\relax }}{18}{figure.caption.14}\protected@file@percent }
\@writefile{toc}{\contentsline {section}{\numberline {3.5}Functional data for pollutants}{18}{section.3.5}\protected@file@percent }
\newlabel{cofunct}{{3.5}{19}{Functional data for pollutants}{figure.caption.15}{}}
\newlabel{cofunct@cref}{{[section][5][3]3.5}{[1][19][]19}}
\newlabel{pm25funct}{{3.5}{19}{Functional data for pollutants}{figure.caption.16}{}}
\newlabel{pm25funct@cref}{{[section][5][3]3.5}{[1][19][]19}}
\newlabel{so2funct}{{3.5}{19}{Functional data for pollutants}{figure.caption.17}{}}
\newlabel{so2funct@cref}{{[section][5][3]3.5}{[1][19][]19}}
\@writefile{lof}{\contentsline {figure}{\numberline {3.13}{\ignorespaces Functions for yearly CO levels (ppm).\relax }}{20}{figure.caption.15}\protected@file@percent }
\@writefile{lof}{\contentsline {figure}{\numberline {3.14}{\ignorespaces Functions for yearly PM$_{2.5}$ levels ($\mu $g/m$^{3}$).\relax }}{21}{figure.caption.16}\protected@file@percent }
\@writefile{lof}{\contentsline {figure}{\numberline {3.15}{\ignorespaces Functions for yearly SO$_{2}$ levels (ppb).\relax }}{22}{figure.caption.17}\protected@file@percent }
\@writefile{toc}{\contentsline {chapter}{\numberline {4}FANOVA}{23}{chapter.4}\protected@file@percent }
\@writefile{lof}{\addvspace {10\p@ }}
\@writefile{lot}{\addvspace {10\p@ }}
\@writefile{toc}{\contentsline {section}{\numberline {4.1}Test of means over time}{23}{section.4.1}\protected@file@percent }
\@writefile{toc}{\contentsline {subsection}{\numberline {4.1.1}Carbon Monoxide}{23}{subsection.4.1.1}\protected@file@percent }
\@writefile{toc}{\contentsline {subsection}{\numberline {4.1.2}Particulate Matter 2.5}{24}{subsection.4.1.2}\protected@file@percent }
\@writefile{toc}{\contentsline {subsection}{\numberline {4.1.3}Sulfur Dioxide}{24}{subsection.4.1.3}\protected@file@percent }
\@writefile{toc}{\contentsline {section}{\numberline {4.2}Test of means against Denver, CO}{24}{section.4.2}\protected@file@percent }
\@writefile{toc}{\contentsline {subsection}{\numberline {4.2.1}Carbon Monoxide}{25}{subsection.4.2.1}\protected@file@percent }
\@writefile{lof}{\contentsline {figure}{\numberline {4.1}{\ignorespaces 3D histogram of daily CO levels (ppm) in Denver, Colorado from 1980--2020\relax }}{25}{figure.caption.18}\protected@file@percent }
\newlabel{denverCO}{{4.1}{25}{3D histogram of daily CO levels (ppm) in Denver, Colorado from 1980--2020\relax }{figure.caption.18}{}}
\newlabel{denverCO@cref}{{[figure][1][4]4.1}{[1][24][]25}}
\@writefile{toc}{\contentsline {subsection}{\numberline {4.2.2}Particulate Matter 2.5}{26}{subsection.4.2.2}\protected@file@percent }
\@writefile{lof}{\contentsline {figure}{\numberline {4.2}{\ignorespaces 3D histogram of daily PM$_{2.5}$ levels ($\mu $g/m$^{3}$) in Denver, Colorado from 1999--2020\relax }}{26}{figure.caption.19}\protected@file@percent }
\newlabel{denverPM25}{{4.2}{26}{3D histogram of daily PM$_{2.5}$ levels ($\mu $g/m$^{3}$) in Denver, Colorado from 1999--2020\relax }{figure.caption.19}{}}
\newlabel{denverPM25@cref}{{[figure][2][4]4.2}{[1][25][]26}}
\@writefile{toc}{\contentsline {subsection}{\numberline {4.2.3}Sulfur Dioxide}{27}{subsection.4.2.3}\protected@file@percent }
\@writefile{lof}{\contentsline {figure}{\numberline {4.3}{\ignorespaces 3D histogram of daily SO$_{2}$ levels (ppb) in Denver, Colorado from 1980--2020\relax }}{27}{figure.caption.20}\protected@file@percent }
\newlabel{denverSO2}{{4.3}{27}{3D histogram of daily SO$_{2}$ levels (ppb) in Denver, Colorado from 1980--2020\relax }{figure.caption.20}{}}
\newlabel{denverSO2@cref}{{[figure][3][4]4.3}{[1][26][]27}}
\@writefile{toc}{\contentsline {chapter}{Conclusion}{28}{chapter*.21}\protected@file@percent }
\@writefile{toc}{\contentsline {chapter}{Appendix}{29}{chapter*.22}\protected@file@percent }
\@writefile{lot}{\contentsline {table}{\numberline {4.1}{\ignorespaces Yearly count of observations per monitoring device for PM$_{2.5}$ in Salt Lake County.\relax }}{33}{table.caption.25}\protected@file@percent }
\newlabel{PM25SiteCounts}{{4.1}{33}{Yearly count of observations per monitoring device for PM$_{2.5}$ in Salt Lake County.\relax }{table.caption.25}{}}
\newlabel{PM25SiteCounts@cref}{{[table][1][4]4.1}{[1][33][]33}}
\@writefile{lot}{\contentsline {table}{\numberline {4.2}{\ignorespaces Cont.: Yearly count of observations per monitoring device for PM$_{2.5}$ in Salt Lake County.\relax }}{34}{table.caption.26}\protected@file@percent }
\newlabel{PM25SiteCounts2}{{4.2}{34}{Cont.: Yearly count of observations per monitoring device for PM$_{2.5}$ in Salt Lake County.\relax }{table.caption.26}{}}
\newlabel{PM25SiteCounts2@cref}{{[table][2][4]4.2}{[1][33][]34}}
\@writefile{lot}{\contentsline {table}{\numberline {4.3}{\ignorespaces Yearly count of observations per monitoring device for CO in Salt Lake County.\relax }}{35}{table.caption.27}\protected@file@percent }
\newlabel{COSiteCounts}{{4.3}{35}{Yearly count of observations per monitoring device for CO in Salt Lake County.\relax }{table.caption.27}{}}
\newlabel{COSiteCounts@cref}{{[table][3][4]4.3}{[1][33][]35}}
\@writefile{lot}{\contentsline {table}{\numberline {4.4}{\ignorespaces Yearly count of observations per monitoring device for SO$_{2}$ in Salt Lake County.\relax }}{36}{table.caption.28}\protected@file@percent }
\newlabel{SO2SiteCounts}{{4.4}{36}{Yearly count of observations per monitoring device for SO$_{2}$ in Salt Lake County.\relax }{table.caption.28}{}}
\newlabel{SO2SiteCounts@cref}{{[table][4][4]4.4}{[1][33][]36}}
\@writefile{lot}{\contentsline {table}{\numberline {4.5}{\ignorespaces Cont.: Yearly count of observations per monitoring device for SO$_{2}$ in Salt Lake County.\relax }}{37}{table.caption.29}\protected@file@percent }
\newlabel{SO2SiteCounts2}{{4.5}{37}{Cont.: Yearly count of observations per monitoring device for SO$_{2}$ in Salt Lake County.\relax }{table.caption.29}{}}
\newlabel{SO2SiteCounts2@cref}{{[table][5][4]4.5}{[1][33][]37}}
\bibcite{hps}{1}
\bibcite{hk}{2}
\bibcite{hr}{3}
\bibcite{korebo}{4}
\bibcite{ramsay}{5}
\bibcite{outdoor}{6}
\bibcite{airdata}{7}
\bibcite{sites}{8}
\bibcite{udeq}{9}
\@writefile{toc}{\contentsline {chapter}{References}{38}{chapter*.30}\protected@file@percent }
\gdef \@abspage@last{45}
