Day,1980,1981,1982,1983,1984,1985,1986,1987,1988,1989,1990,1991,1992,1993,1994,1995,1996,1997,1998,1999,2000,2001,2002,2003,2004,2005,2006,2007,2008,2009,2010,2011,2012,2013,2014,2015,2016,2017,2018,2019,2020
01-01,110.0,250.0,50.0,80.0,110.0,40.0,80.0,50.0,200.0,29.0,168.0,380.0,18.0,47.0,72.0,236.0,5.0,12.0,7.0,3.0,12.0,28.0,4.0,4.0,6.0,6.0,16.0,5.0,8.0,4.0,8.0,4.0,7.0,2.2,4.4,0.6,1.8,1.6,2.2,2.3,0.8
01-02,290.0,220.0,170.0,210.0,100.0,60.0,50.0,10.0,220.0,74.0,33.0,435.0,76.0,111.0,21.0,135.0,7.0,7.0,2.0,12.0,6.0,12.0,5.0,11.0,8.0,5.0,14.0,9.0,10.0,3.0,7.0,5.0,7.0,3.0,2.9,3.7,2.5,2.1,3.0,1.2,1.2
01-03,490.0,130.0,270.0,130.0,180.0,80.0,70.0,70.0,60.0,76.0,21.0,90.0,98.0,399.0,29.0,168.0,12.0,5.0,6.0,5.0,10.0,21.0,7.0,5.0,7.0,11.0,7.0,8.0,6.0,3.0,7.0,5.0,15.0,3.0,2.2,2.2,3.5,1.1,3.5,2.6,1.4
01-04,360.0,80.0,280.0,110.0,150.0,80.0,70.0,110.0,50.0,78.0,85.0,55.0,87.0,49.0,34.0,77.0,23.0,3.0,5.0,13.0,7.0,17.0,3.0,19.0,8.0,15.0,9.0,4.0,13.0,4.0,8.0,5.0,7.0,4.0,0.6,0.4,2.8,0.6,4.0,3.9,1.4
01-05,120.0,60.0,70.0,110.0,190.0,50.0,90.0,10.0,80.0,52.0,93.0,181.0,90.0,84.0,15.0,23.0,6.0,3.0,1.0,23.0,4.0,22.0,9.0,8.0,13.0,3.0,11.0,12.0,24.0,7.0,6.0,7.0,7.0,4.2,0.6,1.1,1.6,1.1,4.6,2.6,1.6
01-06,100.0,20.0,40.0,160.0,130.0,90.0,30.0,20.0,250.0,42.0,181.0,49.0,33.0,113.0,10.0,11.0,20.0,14.0,9.0,11.0,10.0,17.0,8.0,7.0,15.0,4.0,15.0,6.0,7.0,6.0,6.0,7.0,7.0,5.3,1.5,3.4,1.6,2.6,3.8,0.8,1.4
01-07,180.0,250.0,150.0,80.0,80.0,50.0,40.0,30.0,390.0,36.0,148.0,68.0,31.0,74.0,10.0,99.0,13.0,5.0,4.0,9.0,16.0,14.0,10.0,24.0,18.0,9.0,11.0,6.0,8.0,6.0,5.0,5.0,2.0,5.0,3.1,5.0,0.8,2.5,1.3,1.2,2.1
01-08,40.0,70.0,110.0,80.0,170.0,240.0,60.0,30.0,170.0,25.0,74.0,176.0,63.0,89.0,53.0,123.0,15.0,18.0,7.0,8.0,8.0,24.0,9.0,7.0,19.0,3.0,3.0,13.0,16.0,9.0,9.0,5.0,3.7,5.0,1.3,1.9,0.6,2.0,1.6,2.2,1.0
01-09,10.0,220.0,90.0,110.0,160.0,40.0,90.0,30.0,150.0,79.0,318.0,98.0,68.0,56.0,16.0,446.0,12.0,7.0,9.0,9.0,13.0,14.0,11.0,13.0,21.0,9.0,7.0,6.0,7.0,4.0,7.0,5.0,4.0,6.0,1.0,1.8,0.6,2.3,0.8,8.8,1.0
01-10,50.0,170.0,110.0,90.0,80.0,90.0,170.0,20.0,70.0,62.0,327.0,130.0,224.0,75.0,10.0,91.0,7.0,7.0,3.0,7.0,10.0,15.0,12.0,8.0,20.0,8.0,9.0,11.0,4.0,4.0,10.0,5.0,6.0,20.0,0.6,1.1,1.3,0.3,1.0,4.1,1.0
01-11,110.0,590.0,90.0,60.0,90.0,40.0,140.0,30.0,60.0,16.0,119.0,130.0,213.0,59.0,49.0,63.0,22.0,2.0,1.0,17.0,9.0,11.0,6.0,4.0,18.0,6.0,27.0,5.0,7.0,9.0,8.0,6.0,4.0,3.0,,1.6,1.0,0.2,1.1,1.7,0.6
01-12,30.0,300.0,70.0,160.0,80.0,100.0,140.0,70.0,110.0,43.0,54.0,292.0,25.0,157.0,32.0,26.0,28.0,3.0,2.0,8.0,17.0,6.0,10.0,4.0,19.0,18.0,7.0,4.0,4.0,6.0,7.0,7.0,6.0,3.0,,0.4,1.2,0.9,1.1,0.4,0.8
01-13,10.0,240.0,80.0,150.0,140.0,80.0,150.0,70.0,280.0,34.0,82.0,134.0,277.0,98.0,38.0,24.0,22.0,5.0,1.0,7.0,26.0,5.0,5.0,9.0,19.0,8.0,10.0,12.0,3.0,11.0,9.0,7.0,5.0,3.0,,1.7,2.5,1.6,0.9,0.7,0.9
01-14,80.0,500.0,160.0,190.0,40.0,80.0,160.0,40.0,240.0,41.0,78.0,50.0,33.0,79.0,68.0,49.0,30.0,5.0,5.0,11.0,7.0,2.0,49.0,9.0,16.0,32.0,19.0,7.0,7.0,11.0,9.0,5.0,8.0,5.0,1.6,2.0,1.1,1.3,1.2,0.9,1.0
01-15,180.0,240.0,110.0,110.0,50.0,90.0,90.0,20.0,260.0,18.0,83.0,62.0,23.0,65.0,33.0,13.0,32.0,4.0,4.0,9.0,17.0,3.0,3.0,3.0,14.0,17.0,2.0,8.0,9.0,13.0,7.0,6.0,8.0,6.0,2.4,2.3,0.8,1.4,2.0,1.3,2.4
01-16,80.0,100.0,140.0,90.0,120.0,70.0,40.0,50.0,100.0,55.0,103.0,64.0,47.0,60.0,48.0,17.0,12.0,7.0,3.0,7.0,6.0,4.0,4.0,9.0,14.0,10.0,13.0,6.0,2.0,13.0,7.0,5.0,3.0,4.0,3.4,1.1,0.8,1.9,3.0,0.9,1.3
01-17,210.0,80.0,50.0,70.0,50.0,80.0,70.0,90.0,140.0,43.0,181.0,126.0,30.0,67.0,39.0,17.0,31.0,12.0,2.0,2.0,14.0,4.0,6.0,6.0,13.0,6.0,5.0,6.0,3.0,9.0,10.0,7.0,5.0,7.0,2.5,0.6,0.8,1.4,3.0,0.8,1.2
01-18,180.0,150.0,50.0,80.0,70.0,120.0,40.0,40.0,210.0,56.0,68.0,102.0,86.0,72.0,36.0,11.0,7.0,20.0,2.0,12.0,7.0,14.0,13.0,16.0,12.0,12.0,13.0,9.0,2.0,11.0,8.0,9.0,7.0,5.0,4.4,0.6,0.6,1.4,1.9,1.1,1.2
01-19,10.0,170.0,80.0,80.0,120.0,70.0,40.0,80.0,170.0,92.0,144.0,83.0,135.0,166.0,52.0,118.0,5.0,19.0,4.0,4.0,8.0,9.0,6.0,9.0,11.0,15.0,2.0,8.0,2.0,9.0,7.0,6.0,12.0,4.3,5.0,3.3,0.4,2.4,0.1,2.5,3.0
01-20,130.0,170.0,90.0,90.0,110.0,170.0,40.0,100.0,90.0,147.0,125.0,87.0,107.0,70.0,98.0,40.0,10.0,15.0,3.0,18.0,8.0,10.0,5.0,13.0,10.0,13.0,13.0,6.0,4.0,9.0,7.0,6.0,4.0,3.3,4.7,1.2,0.6,2.0,0.1,3.6,2.2
01-21,190.0,90.0,80.0,30.0,90.0,70.0,20.0,70.0,140.0,119.0,80.0,115.0,137.0,100.0,51.0,76.0,27.0,13.0,4.0,6.0,8.0,11.0,10.0,8.0,10.0,9.0,7.0,3.0,3.0,14.0,5.0,7.0,3.0,6.0,2.9,1.3,1.0,0.4,0.4,2.8,3.7
01-22,150.0,500.0,90.0,90.0,50.0,50.0,60.0,490.0,160.0,88.0,208.0,148.0,98.0,65.0,58.0,48.0,4.0,19.0,3.0,7.0,4.0,9.0,5.0,6.0,13.0,11.0,10.0,7.0,3.0,8.0,4.0,6.0,4.0,5.0,6.1,0.7,2.0,1.4,0.9,2.6,1.1
01-23,110.0,150.0,250.0,90.0,120.0,70.0,50.0,120.0,180.0,53.0,152.0,87.0,72.0,62.0,34.0,45.0,7.0,5.0,3.0,13.0,9.0,21.0,8.0,6.0,16.0,17.0,8.0,7.0,5.0,5.0,5.0,8.0,6.0,4.0,2.9,2.2,1.6,1.9,0.8,7.2,1.1
01-24,160.0,100.0,260.0,120.0,110.0,110.0,20.0,40.0,130.0,15.0,27.0,148.0,63.0,57.0,46.0,31.0,7.0,9.0,5.0,4.0,8.0,12.0,7.0,6.0,15.0,17.0,8.0,9.0,12.0,6.0,4.0,7.0,3.0,4.0,2.3,1.9,0.6,0.8,2.4,0.9,1.2
01-25,180.0,100.0,220.0,60.0,110.0,90.0,60.0,60.0,190.0,45.0,76.0,83.0,94.0,100.0,33.0,22.0,12.0,13.0,1.0,5.0,11.0,5.0,9.0,5.0,17.0,17.0,15.0,8.0,9.0,4.0,5.0,5.0,4.0,3.0,2.7,0.8,0.5,0.9,0.2,3.5,1.2
01-26,110.0,390.0,240.0,80.0,80.0,110.0,50.0,70.0,250.0,62.0,54.0,238.0,120.0,98.0,23.0,12.0,24.0,10.0,3.0,2.0,8.0,16.0,13.0,5.0,10.0,10.0,8.0,10.0,6.0,4.0,4.0,6.0,8.0,5.0,4.2,1.5,1.1,1.4,0.3,2.2,1.4
01-27,100.0,190.0,210.0,20.0,170.0,100.0,70.0,120.0,250.0,54.0,29.0,134.0,146.0,106.0,52.0,7.0,10.0,4.0,5.0,5.0,47.0,8.0,8.0,5.0,11.0,5.0,8.0,7.0,14.0,3.0,4.0,6.0,2.0,3.0,5.5,0.9,1.5,1.6,0.7,2.1,1.2
01-28,70.0,100.0,140.0,80.0,160.0,70.0,80.0,50.0,260.0,34.0,89.0,242.0,61.0,84.0,31.0,40.0,7.0,9.0,4.0,3.0,3.0,4.0,3.0,2.0,13.0,10.0,9.0,10.0,4.0,7.0,3.0,7.0,3.0,3.0,2.7,0.8,1.9,1.0,0.9,1.6,0.9
01-29,130.0,80.0,160.0,30.0,140.0,90.0,50.0,50.0,180.0,61.0,64.0,134.0,98.0,71.0,34.0,26.0,8.0,5.0,8.0,8.0,5.0,8.0,4.0,12.0,12.0,4.0,9.0,15.0,5.0,6.0,8.0,9.0,9.0,4.0,1.3,0.9,1.6,1.5,1.8,1.8,1.1
01-30,180.0,200.0,200.0,50.0,120.0,60.0,20.0,50.0,90.0,45.0,66.0,167.0,165.0,127.0,99.0,26.0,6.0,11.0,1.0,10.0,22.0,13.0,7.0,6.0,14.0,6.0,13.0,33.0,3.0,14.0,8.0,6.0,7.0,12.0,1.3,0.6,,1.9,3.0,2.0,0.9
01-31,180.0,180.0,160.0,90.0,100.0,50.0,30.0,50.0,30.0,85.0,29.0,132.0,234.0,43.0,346.0,38.0,3.0,10.0,2.0,7.0,14.0,7.0,5.0,7.0,10.0,43.0,9.0,7.0,8.0,12.0,6.0,7.0,7.0,5.0,1.3,0.0,,1.9,1.1,4.1,1.6
02-01,230.0,180.0,170.0,50.0,100.0,20.0,70.0,70.0,100.0,51.0,74.0,277.0,130.0,50.0,167.0,20.0,10.0,22.0,5.0,5.0,16.0,5.0,11.0,4.0,10.0,5.0,8.0,4.0,3.0,7.0,5.0,5.0,4.0,7.0,0.6,0.2,,3.1,2.0,7.5,1.1
02-02,180.0,230.0,200.0,80.0,100.0,110.0,60.0,150.0,160.0,15.0,246.0,281.0,79.0,123.0,103.0,201.0,16.0,4.0,3.0,7.0,34.0,12.0,10.0,34.0,11.0,5.0,4.0,4.0,6.0,8.0,27.0,5.0,3.0,5.0,0.4,0.0,,2.1,1.2,1.4,1.8
02-03,160.0,210.0,160.0,40.0,200.0,120.0,30.0,80.0,240.0,20.0,117.0,87.0,104.0,88.0,110.0,50.0,13.0,3.0,3.0,10.0,39.0,11.0,16.0,4.0,9.0,23.0,15.0,10.0,6.0,23.0,10.0,7.0,6.0,8.0,1.1,0.3,,1.6,0.5,1.3,0.7
02-04,170.0,200.0,30.0,60.0,180.0,20.0,20.0,40.0,380.0,16.0,177.0,119.0,74.0,82.0,52.0,42.0,12.0,2.0,5.0,12.0,25.0,14.0,15.0,7.0,11.0,32.0,14.0,6.0,2.0,18.0,7.0,7.0,3.0,7.0,1.0,0.1,,1.6,1.4,1.3,24.0
02-05,330.0,290.0,160.0,80.0,180.0,110.0,20.0,30.0,280.0,52.0,48.0,93.0,68.0,56.0,92.0,68.0,20.0,4.0,1.0,3.0,16.0,15.0,22.0,3.0,8.0,7.0,18.0,8.0,12.0,8.0,6.0,6.0,3.0,5.1,1.2,1.0,,1.2,0.4,1.4,0.8
02-06,310.0,170.0,240.0,130.0,110.0,50.0,20.0,80.0,420.0,34.0,154.0,120.0,135.0,53.0,50.0,64.0,18.0,16.0,4.0,4.0,16.0,8.0,17.0,11.0,18.0,27.0,14.0,8.0,5.0,16.0,3.0,5.0,5.0,9.0,2.9,0.1,,1.6,1.5,1.4,1.4
02-07,50.0,280.0,130.0,80.0,80.0,80.0,20.0,50.0,230.0,25.0,112.0,267.0,101.0,59.0,24.0,25.0,18.0,15.0,7.0,4.0,17.0,6.0,27.0,15.0,10.0,4.0,17.0,5.0,9.0,5.0,3.0,8.0,6.0,11.0,1.0,0.0,,0.1,1.4,1.2,1.7
02-08,180.0,370.0,210.0,60.0,110.0,50.0,10.0,60.0,150.0,43.0,72.0,111.0,49.0,71.0,14.0,27.0,26.0,18.0,6.0,16.0,19.0,9.0,23.0,7.0,8.0,6.0,18.0,5.0,7.0,5.0,4.0,7.0,6.0,7.0,0.3,0.0,,0.2,1.5,2.3,1.1
02-09,160.0,160.0,130.0,100.0,140.0,30.0,30.0,90.0,130.0,87.0,109.0,101.0,62.0,100.0,114.0,22.0,23.0,17.0,10.0,5.0,12.0,13.0,5.0,5.0,9.0,40.0,21.0,7.0,5.0,6.0,5.0,5.0,3.0,4.0,0.4,0.0,,0.9,1.1,1.5,1.1
02-10,170.0,200.0,100.0,130.0,60.0,50.0,40.0,50.0,60.0,43.0,179.0,119.0,71.0,50.0,34.0,17.0,32.0,20.0,5.0,13.0,5.0,9.0,17.0,10.0,9.0,10.0,3.0,8.0,5.0,7.0,6.0,7.0,3.0,3.0,0.5,0.4,,1.4,0.6,1.4,1.9
02-11,130.0,120.0,100.0,160.0,60.0,160.0,20.0,60.0,300.0,48.0,119.0,257.0,43.0,40.0,8.0,8.0,5.0,10.0,5.0,7.0,7.0,4.0,15.0,8.0,10.0,8.0,10.0,6.0,6.0,5.0,5.0,6.0,4.0,4.0,0.6,1.2,,0.2,0.4,1.4,2.2
02-12,250.0,220.0,70.0,100.0,160.0,140.0,40.0,40.0,220.0,180.0,138.0,191.0,49.0,163.0,274.0,57.0,11.0,9.0,8.0,19.0,4.0,12.0,5.0,27.0,14.0,6.0,16.0,2.0,5.0,5.0,5.0,10.0,3.0,7.0,0.8,0.7,,1.2,0.3,5.1,1.4
02-13,100.0,350.0,210.0,170.0,120.0,90.0,40.0,40.0,240.0,114.0,54.0,42.0,39.0,125.0,117.0,23.0,16.0,4.0,7.0,13.0,5.0,3.0,16.0,12.0,11.0,14.0,23.0,3.0,5.0,5.0,5.0,8.0,4.0,15.0,0.7,1.3,,,1.4,6.3,1.8
02-14,30.0,140.0,170.0,110.0,50.0,130.0,70.0,20.0,60.0,133.0,25.0,97.0,213.0,281.0,134.0,56.0,10.0,6.0,7.0,15.0,7.0,9.0,10.0,17.0,15.0,7.0,17.0,2.0,4.0,5.0,3.0,12.0,3.1,3.0,0.5,0.9,,,3.1,1.6,1.1
02-15,30.0,100.0,270.0,110.0,80.0,120.0,50.0,40.0,110.0,60.0,72.0,68.0,80.0,109.0,19.0,52.0,11.0,9.0,12.0,10.0,5.0,4.0,17.0,19.0,15.0,10.0,3.0,2.0,8.0,6.0,4.0,11.0,5.0,7.0,1.0,1.2,,,0.0,1.6,1.6
02-16,410.0,160.0,40.0,160.0,40.0,160.0,90.0,20.0,40.0,64.0,74.0,80.0,35.0,105.0,104.0,78.0,18.0,10.0,4.0,13.0,42.0,11.0,17.0,4.0,17.0,5.0,16.0,2.0,6.0,8.0,4.0,35.2,3.0,5.0,0.4,0.5,,,1.0,2.2,0.9
02-17,10.0,80.0,60.0,90.0,70.0,170.0,10.0,20.0,150.0,82.0,85.0,50.0,92.0,48.0,53.0,62.0,19.0,18.0,5.0,2.0,2.0,10.0,9.0,7.0,13.0,25.0,12.0,4.0,4.0,5.0,4.0,7.0,4.0,4.0,0.8,1.0,,,0.7,4.3,1.0
02-18,30.0,200.0,210.0,130.0,30.0,160.0,40.0,20.0,80.0,83.0,57.0,52.0,342.0,54.0,11.0,77.0,6.0,3.0,3.0,2.0,3.0,8.0,9.0,16.0,16.0,10.0,6.0,7.0,9.0,3.0,3.0,18.0,3.0,4.0,1.5,1.4,,,0.3,2.1,1.1
02-19,10.0,170.0,210.0,130.0,50.0,170.0,40.0,20.0,150.0,86.0,148.0,85.0,57.0,43.0,203.0,41.0,11.0,6.0,9.0,4.0,10.0,10.0,4.0,8.0,12.0,7.0,8.0,5.0,4.0,7.0,4.0,5.0,3.0,5.0,1.1,1.8,,,0.2,1.5,1.6
02-20,80.0,70.0,300.0,80.0,50.0,70.0,50.0,40.0,130.0,68.0,62.0,109.0,50.0,70.0,314.0,46.0,10.0,5.0,9.0,6.0,12.0,5.0,4.0,7.0,10.0,7.0,10.0,24.0,3.0,5.0,3.0,4.0,5.0,6.0,0.6,0.3,,,0.4,1.6,2.5
02-21,40.0,140.0,190.0,120.0,90.0,90.0,80.0,20.0,130.0,58.0,51.0,262.0,121.0,51.0,120.0,65.0,13.0,5.0,7.0,8.0,10.0,4.0,9.0,3.0,12.0,8.0,14.0,22.0,3.0,17.0,3.0,3.0,4.0,4.0,1.4,0.1,,,0.7,2.1,3.0
02-22,50.0,220.0,180.0,110.0,50.0,80.0,60.0,30.0,180.0,190.0,58.0,219.0,58.0,40.0,22.0,58.0,3.0,7.0,6.0,3.0,6.0,5.0,10.0,4.0,12.0,15.0,8.0,9.0,3.0,6.0,5.0,6.0,4.0,7.0,0.8,0.0,,,0.6,2.2,2.3
02-23,140.0,210.0,100.0,100.0,30.0,70.0,70.0,20.0,80.0,120.0,56.0,95.0,27.0,21.0,307.0,71.0,8.0,5.0,5.0,9.0,9.0,3.0,13.0,6.0,11.0,21.0,13.0,9.0,4.0,6.0,4.0,8.0,4.0,6.0,1.0,0.1,,,0.5,2.5,1.3
02-24,80.0,220.0,270.0,100.0,100.0,150.0,30.0,40.0,170.0,74.0,126.0,148.0,119.0,31.0,11.0,76.0,25.0,24.0,8.0,7.0,6.0,4.0,25.0,6.0,12.0,12.0,8.0,4.0,7.0,4.0,4.0,6.0,4.0,4.0,2.2,1.6,,,0.7,1.5,0.9
02-25,210.0,380.0,160.0,60.0,70.0,100.0,40.0,50.0,170.0,87.0,159.0,216.0,161.0,314.0,8.0,48.0,4.0,11.0,3.0,11.0,6.0,4.0,17.0,2.0,12.0,25.0,21.0,4.0,3.0,6.0,4.0,5.0,8.0,2.0,1.0,0.4,,,0.2,1.6,1.4
02-26,150.0,120.0,210.0,60.0,150.0,30.0,90.0,20.0,130.0,80.0,185.0,169.0,158.0,137.0,37.0,33.0,6.0,8.0,1.0,5.0,8.0,5.0,4.0,5.0,11.0,30.0,14.0,6.0,6.0,5.0,5.0,1.0,4.0,3.0,0.8,0.3,,,0.5,1.6,1.6
02-27,480.0,60.0,100.0,80.0,60.0,50.0,30.0,20.0,200.0,140.0,80.0,179.0,130.0,78.0,114.0,36.0,8.0,3.0,4.0,30.0,18.0,5.0,4.0,5.0,9.0,13.0,19.0,9.0,7.0,4.0,6.0,1.9,5.0,3.0,0.4,0.0,,1.1,0.9,4.1,2.0
02-28,30.0,210.0,190.0,50.0,120.0,90.0,60.0,60.0,210.0,13.0,34.0,106.0,103.0,82.0,24.0,32.0,37.0,3.0,11.0,12.0,3.0,8.0,6.0,7.0,9.0,24.0,12.0,7.0,3.0,11.0,3.0,2.0,4.1,8.0,0.7,0.0,,0.1,0.5,7.6,1.3
03-01,40.0,290.0,220.0,30.0,130.0,100.0,60.0,30.0,210.0,52.0,128.0,158.0,60.0,59.0,46.0,40.0,6.0,9.0,9.0,10.0,6.0,6.0,2.0,10.0,11.0,4.0,21.0,9.0,6.0,11.0,6.0,2.1,4.0,13.0,0.2,0.6,,0.0,0.2,2.0,0.8
03-02,90.0,90.0,110.0,100.0,120.0,10.0,20.0,60.0,130.0,85.0,77.0,85.0,49.0,105.0,61.0,55.0,6.0,8.0,16.0,8.0,3.0,9.0,4.0,7.0,9.0,41.0,16.0,16.0,3.0,7.0,8.0,6.0,3.0,5.0,0.4,0.2,,0.0,0.3,1.8,1.2
03-03,80.0,140.0,120.0,10.0,60.0,40.0,40.0,30.0,60.0,14.0,62.0,41.0,37.0,60.0,34.0,49.0,10.0,4.0,10.0,9.0,9.0,6.0,5.0,18.0,9.0,12.0,28.0,19.0,6.0,6.0,12.0,20.0,5.0,4.0,0.6,0.0,,0.3,0.7,4.2,1.3
03-04,90.0,140.0,200.0,130.0,110.0,50.0,200.0,90.0,40.0,24.0,119.0,42.0,44.0,25.0,25.0,160.0,13.0,7.0,7.0,6.0,17.0,9.0,29.0,4.0,7.0,17.0,18.0,24.0,5.0,7.0,7.0,2.0,3.0,4.0,0.6,0.1,,0.0,0.5,0.9,1.2
03-05,30.0,310.0,120.0,80.0,40.0,90.0,70.0,80.0,170.0,76.0,69.0,47.0,174.0,34.0,11.0,10.0,35.0,18.0,14.0,22.0,8.0,19.0,12.0,12.0,12.0,7.0,11.0,22.0,4.0,6.0,13.0,5.0,14.0,7.0,0.8,0.3,,0.0,1.0,4.5,1.1
03-06,50.0,140.0,140.0,60.0,90.0,70.0,30.0,60.0,170.0,37.0,52.0,19.0,71.0,44.0,29.0,45.0,56.0,15.0,14.0,23.0,7.0,23.0,9.0,12.0,8.0,9.0,29.0,8.0,5.0,4.0,5.0,2.0,4.0,8.0,0.7,0.4,,0.4,0.3,6.9,1.1
03-07,90.0,150.0,180.0,80.0,60.0,40.0,90.0,30.0,50.0,52.0,46.0,40.0,68.0,235.0,91.0,48.0,9.0,15.0,5.0,14.0,6.0,12.0,9.0,9.0,12.0,5.0,13.0,8.0,5.0,4.0,5.0,3.0,7.0,4.0,1.0,0.7,,0.0,1.9,1.5,1.1
03-08,50.0,240.0,790.0,90.0,180.0,40.0,10.0,20.0,210.0,48.0,220.0,54.0,217.0,196.0,22.0,55.0,20.0,6.0,10.0,4.0,6.0,13.0,11.0,6.0,24.0,12.0,5.0,16.0,6.0,8.0,6.0,3.3,6.0,5.0,0.9,0.4,,0.0,2.5,1.1,1.0
03-09,60.0,190.0,210.0,50.0,70.0,30.0,40.0,10.0,210.0,75.0,93.0,150.0,281.0,112.0,331.0,84.0,21.0,10.0,14.0,12.0,7.0,16.0,8.0,9.0,30.0,17.0,9.0,11.0,6.0,14.0,6.0,3.0,13.0,21.0,1.2,0.6,,0.1,1.6,3.9,0.9
03-10,50.0,100.0,120.0,110.0,100.0,60.0,50.0,40.0,30.0,93.0,123.0,70.0,1545.0,114.0,109.0,29.0,11.0,8.0,9.0,4.0,9.0,21.0,7.0,7.0,19.0,13.0,27.0,18.0,10.0,23.0,3.0,3.0,9.0,4.0,0.6,0.5,,0.3,1.1,2.7,1.2
03-11,210.0,160.0,180.0,60.0,50.0,100.0,30.0,40.0,80.0,65.0,74.0,25.0,209.0,25.0,38.0,23.0,9.0,11.0,22.0,7.0,11.0,18.0,5.0,10.0,24.0,15.0,23.0,8.0,9.0,13.0,5.0,3.6,9.0,4.0,0.9,0.4,,0.3,0.6,2.9,1.1
03-12,120.0,520.0,120.0,140.0,90.0,80.0,10.0,90.0,90.0,37.0,30.0,105.0,74.0,42.0,40.0,20.0,5.0,19.0,23.0,3.0,5.0,4.0,15.0,9.0,13.0,22.0,5.0,14.0,7.0,5.0,8.0,2.1,6.0,5.0,4.0,0.3,,0.2,2.2,3.2,2.5
03-13,10.0,90.0,160.0,130.0,100.0,40.0,20.0,110.0,240.0,23.0,28.0,187.0,104.0,49.0,222.0,28.0,5.0,9.0,20.0,10.0,32.0,9.0,13.0,4.0,26.0,12.0,38.0,9.0,7.0,10.0,8.0,4.0,3.0,4.0,6.3,0.4,,0.3,1.5,1.7,2.4
03-14,10.0,90.0,280.0,100.0,50.0,50.0,10.0,20.0,150.0,24.0,56.0,78.0,118.0,38.0,110.0,24.0,15.0,10.0,7.0,17.0,8.0,13.0,18.0,4.0,17.0,9.0,14.0,23.0,10.0,10.0,26.0,4.0,3.5,5.0,1.4,0.0,,0.5,0.4,2.7,0.8
03-15,40.0,130.0,100.0,30.0,50.0,80.0,10.0,20.0,70.0,57.0,59.0,91.0,51.0,35.0,35.0,18.0,9.0,12.0,13.0,8.0,6.0,9.0,5.0,48.0,9.0,6.0,26.0,12.0,17.0,8.0,5.0,15.0,3.0,10.0,0.9,0.0,,0.5,0.5,4.7,1.0
03-16,170.0,120.0,40.0,890.0,60.0,40.0,10.0,60.0,10.0,30.0,31.0,31.0,70.0,31.0,35.0,38.0,15.0,9.0,18.0,11.0,7.0,18.0,7.0,8.0,11.0,8.0,9.0,21.0,2.0,15.0,7.0,6.0,4.0,5.0,0.8,0.2,,0.5,0.4,5.9,1.1
03-17,210.0,120.0,120.0,30.0,100.0,140.0,10.0,50.0,90.0,20.0,61.0,210.0,35.0,36.0,20.0,324.0,18.0,15.0,14.0,4.0,25.0,12.0,12.0,6.0,10.0,14.0,6.0,15.0,8.0,14.0,10.0,4.0,5.0,14.0,0.4,0.1,,0.6,0.0,4.6,1.9
03-18,170.0,150.0,170.0,60.0,90.0,90.0,10.0,40.0,350.0,153.0,92.0,212.0,72.0,23.0,45.0,64.0,8.0,20.0,21.0,19.0,20.0,3.0,8.0,6.0,10.0,10.0,16.0,21.0,11.0,14.0,16.0,10.0,5.0,4.0,0.9,0.6,,0.4,0.6,5.7,1.2
03-19,30.0,220.0,70.0,30.0,130.0,100.0,10.0,30.0,180.0,43.0,132.0,20.0,98.0,23.0,39.0,164.0,6.0,25.0,15.0,25.0,14.0,5.0,8.0,3.0,12.0,7.0,5.0,10.0,14.0,16.0,6.0,3.0,4.0,6.0,0.9,0.1,,0.7,0.5,5.6,0.9
03-20,20.0,120.0,130.0,60.0,80.0,80.0,10.0,20.0,200.0,57.0,138.0,41.0,265.0,54.0,106.0,32.0,15.0,11.0,11.0,10.0,12.0,6.0,11.0,4.0,33.0,9.0,35.0,21.0,5.0,21.0,8.0,10.0,3.0,8.0,1.4,2.2,,1.0,0.8,1.2,0.9
03-21,80.0,150.0,140.0,70.0,80.0,120.0,20.0,30.0,50.0,84.0,35.0,17.0,33.0,243.0,179.0,18.0,13.0,4.0,10.0,5.0,17.0,4.0,39.0,8.0,20.0,15.0,19.0,10.0,2.0,10.0,9.0,6.0,3.0,10.0,1.8,0.5,,0.1,0.7,1.3,0.9
03-22,60.0,200.0,120.0,70.0,160.0,60.0,20.0,20.0,40.0,25.0,97.0,78.0,22.0,113.0,37.0,93.0,13.0,17.0,11.0,20.0,17.0,29.0,26.0,6.0,18.0,13.0,7.0,5.0,4.0,25.0,6.0,3.0,9.0,5.0,2.3,0.3,,0.3,0.1,1.8,1.0
03-23,150.0,100.0,100.0,70.0,110.0,90.0,20.0,40.0,270.0,23.0,58.0,175.0,234.0,58.0,214.0,91.0,22.0,14.0,14.0,17.0,11.0,6.0,5.0,6.0,17.0,28.0,17.0,15.0,7.0,8.0,8.0,5.0,20.0,6.0,0.8,0.0,,0.1,0.3,3.0,7.4
03-24,130.0,150.0,110.0,80.0,100.0,70.0,30.0,20.0,50.0,52.0,78.0,101.0,255.0,79.0,13.0,24.0,6.0,6.0,9.0,19.0,19.0,5.0,4.0,4.0,20.0,5.0,13.0,124.0,12.0,8.0,9.0,6.0,8.0,5.0,1.1,0.1,,0.5,0.2,2.4,1.2
03-25,210.0,210.0,160.0,110.0,90.0,30.0,20.0,30.0,90.0,40.0,97.0,15.0,121.0,50.0,45.0,10.0,5.0,10.0,12.0,10.0,26.0,11.0,7.0,3.0,11.0,10.0,18.0,11.0,4.0,25.0,43.0,5.0,5.0,10.0,0.9,0.0,,0.1,1.1,3.4,0.8
03-26,30.0,380.0,150.0,90.0,90.0,50.0,30.0,30.0,60.0,37.0,160.0,80.0,103.0,13.0,179.0,17.0,5.0,16.0,19.0,9.0,9.0,4.0,7.0,5.0,30.0,7.0,20.0,7.0,5.0,21.0,18.0,7.0,15.0,5.0,1.3,0.3,,0.3,0.6,5.3,0.9
03-27,170.0,150.0,100.0,40.0,60.0,30.0,40.0,20.0,70.0,24.0,111.0,64.0,76.0,18.0,19.0,91.0,17.0,19.0,5.0,6.0,13.0,22.0,10.0,13.0,9.0,11.0,14.0,4.0,10.0,6.0,6.0,2.0,7.0,6.0,0.7,0.3,,0.2,2.0,1.3,1.6
03-28,200.0,140.0,110.0,140.0,50.0,40.0,40.0,20.0,40.0,64.0,72.0,113.0,430.0,18.0,12.0,178.0,16.0,9.0,6.0,10.0,15.0,5.0,8.0,5.0,7.0,11.0,20.0,2.0,10.0,14.0,4.0,4.0,6.0,4.0,0.9,0.3,,1.9,0.5,2.7,1.1
03-29,110.0,260.0,190.0,50.0,40.0,100.0,30.0,20.0,40.0,20.0,44.0,46.0,638.0,25.0,113.0,23.0,38.0,8.0,7.0,15.0,22.0,4.0,5.0,4.0,16.0,42.0,8.0,15.0,7.0,37.0,7.0,4.0,5.0,5.0,0.4,0.4,,0.7,0.5,2.8,1.2
03-30,110.0,140.0,90.0,50.0,10.0,110.0,20.0,30.0,10.0,31.0,128.0,76.0,65.0,71.0,182.0,173.0,45.0,11.0,12.0,9.0,18.0,15.0,5.0,4.0,9.0,45.0,5.0,5.0,6.0,11.0,13.0,3.0,6.0,4.0,0.3,0.6,,0.2,0.6,3.2,1.1
03-31,70.0,390.0,160.0,60.0,20.0,40.0,20.0,20.0,50.0,102.0,164.0,70.0,471.0,318.0,48.0,564.0,19.0,15.0,17.0,28.0,16.0,6.0,8.0,5.0,13.0,11.0,12.0,8.0,15.0,16.0,4.0,6.0,12.0,7.0,0.6,0.1,,0.5,0.5,3.1,1.0
04-01,30.0,380.0,190.0,60.0,40.0,30.0,20.0,130.0,80.0,33.0,111.0,39.0,165.0,91.0,41.0,34.0,25.0,10.0,5.0,16.0,7.0,8.0,60.0,15.0,6.0,10.0,5.0,29.0,4.0,26.0,21.0,4.0,12.0,6.0,0.4,0.0,,0.4,1.0,5.4,1.8
04-02,240.0,110.0,270.0,60.0,150.0,90.0,10.0,20.0,190.0,19.0,138.0,14.0,191.0,36.0,68.0,22.0,22.0,6.0,34.0,10.0,8.0,28.0,11.0,13.0,7.0,17.0,3.0,34.0,5.0,7.0,16.0,9.0,16.0,2.0,1.4,0.3,,0.2,1.0,2.4,0.9
04-03,80.0,60.0,220.0,30.0,50.0,60.0,20.0,50.0,100.0,25.0,39.0,35.0,143.0,158.0,42.0,56.0,11.0,7.0,5.0,6.0,6.0,11.0,14.0,2.0,6.0,10.0,9.0,15.0,5.0,12.0,15.0,1.4,3.0,3.0,1.9,0.0,,0.4,1.0,1.5,1.2
04-04,100.0,130.0,100.0,20.0,40.0,30.0,30.0,60.0,50.0,82.0,47.0,58.0,41.0,30.0,31.0,76.0,5.0,34.0,10.0,4.0,42.0,17.0,17.0,2.0,9.0,18.0,4.0,42.0,10.0,7.0,13.0,3.0,7.0,4.0,0.8,0.0,,0.6,1.0,3.0,1.2
04-05,10.0,140.0,230.0,10.0,70.0,20.0,20.0,60.0,140.0,119.0,101.0,72.0,56.0,52.0,68.0,49.0,6.0,3.0,12.0,12.0,27.0,20.0,9.0,7.0,10.0,10.0,4.0,23.0,16.0,15.0,20.0,7.0,11.0,7.0,1.0,0.4,,0.6,1.0,1.6,1.6
04-06,50.0,80.0,210.0,60.0,50.0,20.0,60.0,20.0,250.0,125.0,31.0,50.0,119.0,32.0,45.0,36.0,26.0,5.0,6.0,9.0,15.0,6.0,21.0,4.0,8.0,14.0,28.0,6.0,7.0,10.0,26.0,2.0,13.0,5.0,0.7,0.4,,0.2,1.0,1.6,1.1
04-07,50.0,380.0,40.0,100.0,40.0,30.0,10.0,110.0,90.0,115.0,382.0,50.0,64.0,123.0,53.0,116.0,30.0,7.0,5.0,9.0,9.0,9.0,10.0,3.0,2.0,7.0,5.0,8.0,10.0,16.0,8.0,2.8,3.0,3.0,1.0,0.0,,0.3,0.0,2.1,1.1
04-08,70.0,200.0,330.0,190.0,60.0,30.0,30.0,40.0,90.0,30.0,130.0,132.0,58.0,204.0,95.0,24.0,11.0,8.0,20.0,5.0,25.0,37.0,11.0,4.0,3.0,18.0,8.0,16.0,8.0,5.0,15.0,5.0,7.0,7.0,1.0,0.0,,0.3,0.0,1.9,1.9
04-09,270.0,330.0,80.0,40.0,70.0,80.0,10.0,30.0,150.0,25.0,148.0,109.0,35.0,42.0,39.0,10.0,10.0,13.0,9.0,36.0,35.0,53.0,8.0,11.0,36.0,9.0,7.0,9.0,12.0,8.0,6.0,3.0,8.9,3.0,1.1,0.1,,0.3,1.0,2.4,1.2
04-10,30.0,220.0,90.0,60.0,50.0,130.0,20.0,30.0,130.0,79.0,123.0,36.0,66.0,80.0,19.0,11.0,92.0,11.0,9.0,6.0,13.0,51.0,8.0,9.0,5.0,11.0,22.0,21.0,4.0,5.0,13.0,2.0,8.0,10.0,2.5,0.3,,0.3,1.0,1.7,1.3
04-11,120.0,100.0,90.0,50.0,30.0,50.0,20.0,80.0,160.0,270.0,257.0,134.0,71.0,32.0,101.0,16.0,15.0,17.0,26.0,31.0,13.0,28.0,14.0,4.0,6.0,8.0,6.0,5.0,7.0,6.0,13.0,3.0,7.0,26.0,1.1,0.0,,0.6,1.0,1.8,1.1
04-12,70.0,330.0,60.0,50.0,50.0,80.0,20.0,40.0,210.0,88.0,144.0,10.0,94.0,21.0,91.0,50.0,20.0,50.0,13.0,32.0,13.0,18.0,8.0,4.0,8.0,16.0,10.0,17.0,13.0,7.0,6.0,3.0,5.0,4.0,3.2,0.0,,0.2,2.0,2.1,1.2
04-13,40.0,320.0,310.0,20.0,50.0,30.0,10.0,30.0,240.0,83.0,60.0,44.0,37.0,19.0,128.0,15.0,9.0,5.0,5.0,8.0,37.0,16.0,9.0,8.0,9.0,9.0,27.0,13.0,14.0,9.0,5.0,3.0,4.0,4.0,1.4,0.2,,0.1,0.0,1.8,1.1
04-14,90.0,400.0,70.0,270.0,50.0,40.0,20.0,60.0,40.0,136.0,166.0,74.0,41.0,76.0,46.0,20.0,4.0,4.0,19.0,10.0,5.0,53.0,31.0,9.0,9.0,7.0,10.0,11.0,6.0,78.0,7.0,1.5,2.0,3.0,1.3,0.0,,0.7,0.0,2.0,1.1
04-15,210.0,300.0,100.0,80.0,60.0,140.0,20.0,60.0,140.0,49.0,83.0,47.0,96.0,25.0,121.0,12.0,5.0,8.0,17.0,5.0,6.0,11.0,28.0,9.0,12.0,5.0,11.0,14.0,3.0,19.0,11.0,3.0,13.0,9.0,1.2,0.0,,0.3,0.0,2.0,1.6
04-16,340.0,500.0,50.0,110.0,110.0,160.0,10.0,60.0,270.0,47.0,60.0,93.0,75.0,34.0,35.0,18.0,10.0,8.0,16.0,5.0,16.0,19.0,22.0,5.0,14.0,24.0,35.0,38.0,4.0,5.0,13.0,6.0,5.0,7.0,0.7,0.0,,0.8,0.0,2.0,1.4
04-17,120.0,130.0,130.0,70.0,140.0,100.0,10.0,50.0,130.0,45.0,23.0,85.0,90.0,14.0,115.0,8.0,5.0,8.0,12.0,7.0,13.0,12.0,16.0,6.0,8.0,11.0,25.0,11.0,6.0,7.0,6.0,11.0,8.0,5.0,0.9,0.2,,0.4,0.0,2.2,1.2
04-18,160.0,170.0,170.0,70.0,100.0,50.0,10.0,10.0,30.0,32.0,52.0,24.0,85.0,28.0,75.0,18.0,12.0,8.0,5.0,17.0,13.0,11.0,3.0,5.0,7.0,11.0,7.0,34.0,7.0,6.0,10.0,2.0,5.0,4.0,1.0,0.2,,0.8,0.0,2.2,1.3
04-19,160.0,310.0,40.0,60.0,160.0,20.0,20.0,20.0,70.0,162.0,146.0,36.0,54.0,109.0,58.0,10.0,20.0,7.0,10.0,9.0,8.0,35.0,6.0,5.0,7.0,7.0,15.0,9.0,5.0,5.0,11.0,2.0,3.0,6.0,1.7,0.4,,0.6,1.0,3.7,1.1
04-20,0.0,60.0,40.0,20.0,70.0,30.0,90.0,20.0,40.0,208.0,60.0,72.0,33.0,42.0,125.0,33.0,14.0,5.0,6.0,9.0,52.0,13.0,8.0,4.0,10.0,4.0,13.0,4.0,21.0,15.0,8.0,3.0,3.3,33.0,1.3,0.5,,0.8,1.0,2.2,1.2
04-21,10.0,90.0,210.0,440.0,60.0,20.0,80.0,50.0,50.0,124.0,60.0,37.0,92.0,76.0,167.0,18.0,9.0,6.0,11.0,7.0,34.0,21.0,25.0,3.0,5.0,7.0,35.0,7.0,5.0,18.0,9.0,8.0,3.0,15.0,1.4,0.1,,0.4,0.0,2.6,1.7
04-22,40.0,230.0,170.0,200.0,90.0,20.0,20.0,30.0,50.0,40.0,58.0,34.0,89.0,32.0,64.0,21.0,4.0,10.0,8.0,4.0,8.0,4.0,15.0,4.0,4.0,28.0,21.0,3.0,14.0,10.0,5.0,3.1,9.0,12.0,0.5,0.0,,0.2,0.0,2.2,1.3
04-23,150.0,150.0,300.0,120.0,50.0,20.0,20.0,40.0,80.0,51.0,17.0,16.0,42.0,38.0,233.0,37.0,13.0,10.0,11.0,11.0,27.0,6.0,13.0,5.0,3.0,14.0,16.0,3.0,28.0,4.0,6.0,5.3,9.0,3.0,0.6,0.0,,0.8,1.0,3.3,0.7
04-24,130.0,360.0,250.0,90.0,50.0,20.0,20.0,30.0,40.0,83.0,34.0,34.0,95.0,55.0,76.0,70.0,17.0,8.0,17.0,8.0,8.0,12.0,12.0,15.0,6.0,9.0,22.0,13.0,131.0,7.0,21.0,5.0,6.0,3.0,1.7,0.0,,0.2,2.2,4.4,0.9
04-25,130.0,750.0,150.0,120.0,70.0,20.0,80.0,50.0,50.0,54.0,31.0,27.0,146.0,83.0,28.0,30.0,11.0,5.0,15.0,6.0,34.0,26.0,25.0,7.0,9.0,10.0,8.0,8.0,9.0,4.0,5.0,4.0,7.0,11.0,1.2,0.0,,0.1,4.0,2.5,0.7
04-26,150.0,130.0,80.0,60.0,60.0,10.0,20.0,50.0,190.0,22.0,33.0,29.0,40.0,25.0,23.0,49.0,10.0,11.0,13.0,7.0,12.0,38.0,6.0,10.0,21.0,4.0,15.0,6.0,6.0,7.0,6.0,3.0,10.0,14.0,0.4,0.0,,0.1,4.0,2.3,1.2
04-27,80.0,150.0,110.0,10.0,60.0,20.0,30.0,20.0,140.0,37.0,27.0,31.0,79.0,147.0,20.0,20.0,17.0,20.0,5.0,9.0,36.0,12.0,7.0,3.0,8.0,3.0,12.0,9.0,8.0,9.0,7.0,3.0,1.0,3.0,0.5,0.4,,0.2,2.2,2.6,1.1
04-28,80.0,130.0,150.0,70.0,120.0,30.0,20.0,40.0,290.0,24.0,78.0,39.0,26.0,23.0,18.0,11.0,5.0,11.0,7.0,6.0,40.0,11.0,6.0,10.0,16.0,11.0,29.0,8.0,14.0,7.0,13.0,4.0,3.0,3.0,0.5,0.5,,0.4,2.3,2.5,1.1
04-29,80.0,210.0,200.0,50.0,50.0,50.0,30.0,50.0,180.0,47.0,83.0,29.0,120.0,79.0,147.0,27.0,20.0,16.0,12.0,13.0,22.0,15.0,21.0,9.0,4.0,4.0,16.0,16.0,9.0,7.0,34.0,2.0,2.0,4.0,1.3,0.1,,1.7,2.5,2.7,0.9
04-30,190.0,140.0,210.0,100.0,50.0,90.0,40.0,70.0,50.0,27.0,35.0,87.0,61.0,25.0,54.0,42.0,7.0,3.0,26.0,4.0,7.0,17.0,10.0,3.0,7.0,8.0,23.0,10.0,5.0,10.0,5.0,1.5,9.0,9.0,1.2,0.2,,0.4,2.4,2.4,1.8
05-01,130.0,300.0,110.0,40.0,50.0,50.0,40.0,30.0,30.0,59.0,60.0,21.0,19.0,30.0,33.0,44.0,10.0,29.0,11.0,12.0,11.0,12.0,33.0,4.0,10.0,10.0,16.0,11.0,22.0,6.0,8.0,3.0,1.8,16.0,0.7,1.3,,0.3,2.3,0.3,1.8
05-02,120.0,170.0,40.0,40.0,80.0,20.0,30.0,20.0,90.0,50.0,41.0,29.0,50.0,25.0,496.0,35.0,17.0,17.0,8.0,7.0,189.0,4.0,7.0,6.0,4.0,18.0,5.0,17.0,4.0,28.0,26.0,2.0,2.4,12.0,0.8,0.0,,0.2,2.4,2.0,1.2
05-03,220.0,70.0,120.0,40.0,70.0,60.0,90.0,30.0,130.0,32.0,60.0,23.0,55.0,40.0,20.0,61.0,12.0,34.0,13.0,18.0,21.0,6.0,24.0,4.0,25.0,25.0,6.0,24.0,7.0,11.0,7.0,3.0,5.0,4.0,1.3,0.1,,0.4,2.1,2.8,1.0
05-04,110.0,160.0,50.0,40.0,60.0,20.0,40.0,40.0,100.0,20.0,119.0,37.0,129.0,75.0,62.0,67.0,14.0,18.0,10.0,26.0,19.0,8.0,5.0,11.0,8.0,33.0,8.0,10.0,9.0,6.0,15.0,3.0,1.9,5.0,2.0,0.7,,0.5,2.3,6.9,1.2
05-05,20.0,110.0,100.0,80.0,50.0,20.0,50.0,50.0,410.0,68.0,98.0,39.0,104.0,33.0,91.0,47.0,14.0,31.0,7.0,33.0,10.0,5.0,40.0,4.0,8.0,68.0,11.0,2.0,7.0,8.0,14.0,7.0,2.5,10.0,1.9,0.0,,0.4,2.2,5.0,2.0
05-06,80.0,60.0,140.0,70.0,40.0,80.0,10.0,20.0,270.0,108.0,82.0,35.0,38.0,32.0,53.0,137.0,12.0,11.0,10.0,9.0,11.0,7.0,15.0,5.0,14.0,26.0,11.0,10.0,12.0,6.0,15.0,6.0,1.0,6.0,0.7,0.0,,0.6,2.2,5.0,1.1
05-07,60.0,100.0,80.0,60.0,40.0,110.0,30.0,70.0,30.0,73.0,40.0,29.0,71.0,12.0,33.0,26.0,12.0,6.0,5.0,14.0,6.0,5.0,52.0,6.0,15.0,5.0,16.0,7.0,12.0,5.0,6.0,6.0,2.7,13.0,0.3,0.0,,0.4,2.9,5.0,0.8
05-08,80.0,100.0,110.0,100.0,70.0,20.0,60.0,20.0,80.0,95.0,31.0,33.0,34.0,104.0,29.0,69.0,4.0,13.0,6.0,19.0,9.0,19.0,6.0,5.0,13.0,15.0,4.0,12.0,5.0,5.0,9.0,3.0,2.7,3.0,2.0,0.0,,1.1,3.2,6.0,1.0
05-09,130.0,200.0,110.0,90.0,110.0,60.0,40.0,40.0,110.0,74.0,62.0,17.0,31.0,76.0,93.0,19.0,5.0,42.0,5.0,7.0,10.0,10.0,56.0,10.0,14.0,30.0,9.0,27.0,4.0,7.0,18.0,3.0,1.6,18.0,0.4,0.0,,1.6,2.6,6.0,0.9
05-10,150.0,100.0,120.0,170.0,40.0,30.0,50.0,30.0,90.0,353.0,238.0,14.0,37.0,165.0,87.0,122.0,14.0,18.0,27.0,22.0,12.0,8.0,12.0,6.0,22.0,7.0,10.0,11.0,5.0,5.0,17.0,2.0,1.0,9.0,0.9,0.0,,1.0,2.3,3.3,3.4
05-11,120.0,120.0,180.0,110.0,70.0,50.0,40.0,40.0,150.0,45.0,62.0,0.0,54.0,21.0,140.0,18.0,30.0,7.0,6.0,7.0,5.0,6.0,8.0,6.0,9.0,3.0,18.0,28.0,7.0,7.0,6.0,5.0,2.0,6.0,0.1,0.0,,0.2,2.4,3.4,1.2
05-12,70.0,180.0,200.0,60.0,80.0,20.0,30.0,30.0,140.0,28.0,37.0,0.0,25.0,39.0,32.0,20.0,79.0,16.0,4.0,16.0,13.0,8.0,21.0,14.0,14.0,5.0,26.0,14.0,14.0,17.0,5.0,3.3,4.0,6.0,0.4,0.0,,0.4,2.1,8.0,1.3
05-13,70.0,90.0,100.0,110.0,60.0,20.0,20.0,40.0,90.0,30.0,32.0,47.0,30.0,32.0,277.0,11.0,89.0,7.0,9.0,15.0,42.0,18.0,9.0,8.0,9.0,10.0,29.0,29.0,4.0,6.0,7.0,15.0,2.0,5.0,0.9,0.0,,0.5,3.2,2.8,1.3
05-14,80.0,70.0,170.0,40.0,40.0,60.0,30.0,40.0,50.0,97.0,267.0,15.0,103.0,19.0,247.0,9.0,29.0,10.0,12.0,10.0,8.0,12.0,37.0,14.0,16.0,21.0,12.0,16.0,9.0,5.0,13.0,5.0,17.0,9.0,0.5,0.0,,0.4,2.6,1.0,1.1
05-15,50.0,100.0,130.0,60.0,40.0,20.0,30.0,60.0,250.0,160.0,212.0,13.0,34.0,15.0,19.0,25.0,10.0,14.0,10.0,8.0,32.0,11.0,9.0,7.0,17.0,6.0,16.0,10.0,73.0,13.0,7.0,5.0,7.0,18.0,0.8,0.0,,0.7,2.4,1.0,1.3
05-16,30.0,230.0,60.0,170.0,20.0,30.0,30.0,70.0,70.0,83.0,72.0,32.0,73.0,26.0,51.0,38.0,18.0,34.0,9.0,5.0,32.0,8.0,18.0,15.0,7.0,10.0,33.0,14.0,11.0,13.0,7.0,2.0,4.0,6.0,0.6,0.0,,0.1,2.1,1.0,1.2
05-17,30.0,250.0,130.0,120.0,40.0,40.0,40.0,40.0,70.0,56.0,216.0,33.0,158.0,26.0,23.0,5.0,15.0,6.0,9.0,7.0,14.0,6.0,77.0,11.0,12.0,6.0,20.0,5.0,26.0,6.0,8.0,2.0,4.0,7.0,0.8,0.0,,0.1,2.2,2.8,1.3
05-18,160.0,350.0,150.0,80.0,120.0,110.0,50.0,30.0,60.0,201.0,42.0,51.0,163.0,57.0,43.0,8.0,21.0,8.0,10.0,7.0,12.0,8.0,12.0,17.0,7.0,6.0,14.0,11.0,59.0,10.0,6.0,2.0,3.0,5.0,0.6,0.3,,0.8,2.5,1.8,1.3
05-19,80.0,100.0,80.0,140.0,40.0,10.0,60.0,40.0,40.0,83.0,199.0,167.0,74.0,132.0,58.0,10.0,12.0,22.0,11.0,10.0,10.0,7.0,18.0,9.0,5.0,11.0,30.0,8.0,57.0,16.0,4.0,2.0,3.0,9.0,1.8,0.0,,0.8,2.4,1.3,1.3
05-20,50.0,80.0,420.0,220.0,90.0,30.0,90.0,20.0,50.0,105.0,48.0,49.0,71.0,76.0,21.0,6.0,6.0,7.0,11.0,6.0,12.0,20.0,7.0,25.0,22.0,12.0,15.0,23.0,16.0,8.0,5.0,4.0,10.0,6.0,0.3,0.0,,0.3,4.0,1.3,1.1
05-21,20.0,70.0,220.0,80.0,80.0,20.0,20.0,20.0,410.0,306.0,43.0,109.0,34.0,70.0,121.0,9.0,110.0,6.0,13.0,20.0,3.0,6.0,16.0,42.0,8.0,17.0,35.0,4.0,12.0,11.0,18.0,2.0,19.0,6.0,0.5,0.4,,0.2,5.0,1.2,1.2
05-22,10.0,350.0,160.0,300.0,30.0,50.0,20.0,40.0,200.0,148.0,292.0,28.0,83.0,19.0,113.0,15.0,70.0,7.0,9.0,5.0,8.0,38.0,14.0,36.0,6.0,22.0,25.0,14.0,5.0,8.0,10.0,4.0,4.0,33.0,0.6,0.0,,1.1,2.3,1.2,1.7
05-23,10.0,280.0,110.0,150.0,60.0,50.0,40.0,40.0,200.0,74.0,109.0,15.0,57.0,34.0,39.0,4.0,55.0,8.0,7.0,44.0,6.0,15.0,10.0,18.0,6.0,20.0,9.0,5.0,5.0,15.0,26.0,4.0,3.0,18.0,0.5,0.0,,0.5,2.1,1.1,0.3
05-24,20.0,170.0,90.0,170.0,70.0,50.0,30.0,30.0,90.0,17.0,60.0,17.0,48.0,100.0,60.0,5.0,43.0,29.0,5.0,11.0,6.0,9.0,48.0,15.0,5.0,11.0,20.0,8.0,9.0,69.0,6.0,4.0,3.0,7.0,0.5,0.0,,0.8,2.3,1.4,1.6
05-25,10.0,40.0,180.0,160.0,50.0,40.0,50.0,60.0,80.0,13.0,60.0,18.0,71.0,52.0,82.0,11.0,8.0,7.0,10.0,18.0,16.0,27.0,13.0,9.0,12.0,6.0,10.0,15.0,5.0,4.0,9.0,13.0,7.0,6.0,0.9,0.0,,1.1,2.2,3.0,1.1
05-26,20.0,80.0,570.0,110.0,230.0,110.0,110.0,40.0,210.0,24.0,111.0,21.0,116.0,82.0,22.0,7.0,5.0,8.0,7.0,8.0,6.0,13.0,20.0,9.0,4.0,5.0,7.0,32.0,9.0,6.0,10.0,4.0,3.0,10.0,0.8,0.0,,1.8,2.2,1.1,1.1
05-27,20.0,70.0,410.0,130.0,110.0,150.0,20.0,50.0,120.0,64.0,96.0,35.0,51.0,69.0,30.0,9.0,11.0,23.0,10.0,17.0,8.0,10.0,17.0,7.0,14.0,9.0,8.0,7.0,6.0,12.0,13.0,6.4,1.0,5.0,1.0,0.0,,0.9,2.5,1.0,1.7
05-28,60.0,270.0,100.0,90.0,100.0,80.0,30.0,30.0,140.0,23.0,68.0,23.0,92.0,72.0,18.0,6.0,6.0,9.0,17.0,8.0,10.0,12.0,20.0,19.0,15.0,10.0,7.0,5.0,11.0,15.0,7.0,2.2,2.0,9.0,0.2,0.0,,1.1,2.4,1.4,2.1
05-29,30.0,180.0,60.0,50.0,70.0,100.0,40.0,50.0,200.0,33.0,67.0,63.0,36.0,35.0,48.0,9.0,17.0,10.0,26.0,5.0,13.0,5.0,15.0,9.0,5.0,12.0,5.0,16.0,9.0,22.0,21.0,17.0,11.0,6.0,1.4,0.0,,1.6,2.0,2.9,1.4
05-30,30.0,120.0,40.0,40.0,100.0,70.0,30.0,60.0,150.0,37.0,82.0,15.0,101.0,39.0,26.0,8.0,7.0,23.0,10.0,14.0,6.0,6.0,9.0,9.0,12.0,4.0,9.0,13.0,15.0,8.0,11.0,6.0,5.0,4.0,1.5,0.0,,0.4,2.0,4.7,2.4
05-31,20.0,80.0,150.0,30.0,60.0,40.0,70.0,80.0,170.0,89.0,69.0,21.0,50.0,137.0,38.0,7.0,30.0,4.0,27.0,14.0,9.0,6.0,18.0,8.0,6.0,6.0,10.0,7.0,16.0,17.0,9.0,4.0,4.0,2.0,0.8,0.3,,0.2,2.2,1.1,1.5
06-01,60.0,1200.0,40.0,80.0,240.0,50.0,60.0,20.0,180.0,23.0,48.0,48.0,40.0,138.0,152.0,24.0,16.0,21.0,7.0,9.0,14.0,10.0,15.0,8.0,17.0,10.0,20.0,12.0,26.0,10.0,7.0,5.0,4.0,4.0,1.2,0.2,,0.3,2.2,1.3,1.4
06-02,30.0,140.0,110.0,50.0,150.0,20.0,60.0,40.0,210.0,87.0,45.0,62.0,79.0,35.0,34.0,49.0,29.0,7.0,18.0,11.0,38.0,15.0,11.0,9.0,10.0,12.0,18.0,13.0,13.0,10.0,5.0,20.0,9.0,8.0,0.3,1.5,,3.3,2.7,2.1,1.6
06-03,70.0,110.0,70.0,80.0,30.0,20.0,40.0,50.0,160.0,48.0,62.0,15.0,67.0,114.0,29.0,6.0,12.0,9.0,13.0,10.0,8.0,21.0,5.0,13.0,27.0,6.0,15.0,13.0,9.0,9.0,7.0,3.5,13.0,6.0,,1.5,,0.9,3.2,3.2,1.5
06-04,20.0,200.0,80.0,30.0,100.0,20.0,50.0,120.0,90.0,7.0,121.0,28.0,58.0,93.0,49.0,4.0,22.0,22.0,10.0,13.0,13.0,20.0,13.0,15.0,9.0,3.0,45.0,20.0,16.0,16.0,9.0,8.0,4.0,5.0,,1.3,,0.6,2.4,4.3,1.9
06-05,40.0,180.0,80.0,80.0,40.0,30.0,40.0,80.0,110.0,41.0,212.0,42.0,40.0,98.0,52.0,5.0,8.0,30.0,14.0,5.0,13.0,36.0,15.0,7.0,13.0,5.0,7.0,29.0,8.0,19.0,8.0,4.0,14.0,5.0,,0.1,,0.8,2.3,2.3,1.6
06-06,20.0,140.0,200.0,100.0,50.0,30.0,20.0,40.0,100.0,33.0,27.0,79.0,44.0,76.0,63.0,23.0,14.0,4.0,30.0,7.0,15.0,8.0,18.0,8.0,14.0,7.0,31.0,30.0,10.0,9.0,7.0,10.0,2.0,5.0,,0.0,,0.8,2.4,2.3,1.7
06-07,60.0,90.0,60.0,60.0,40.0,30.0,50.0,50.0,100.0,71.0,80.0,23.0,98.0,14.0,17.0,8.0,29.0,6.0,5.0,16.0,2.0,23.0,9.0,9.0,18.0,11.0,26.0,36.0,4.0,10.0,11.0,3.0,3.0,11.0,,0.9,,0.3,2.1,2.3,3.1
06-08,40.0,120.0,70.0,30.0,40.0,40.0,20.0,70.0,120.0,30.0,68.0,41.0,53.0,15.0,33.0,5.0,10.0,5.0,5.0,10.0,3.0,21.0,25.0,27.0,14.0,13.0,12.0,11.0,13.0,10.0,6.0,13.0,8.0,8.0,,1.2,,0.3,2.7,1.2,1.3
06-09,50.0,40.0,50.0,130.0,20.0,20.0,30.0,120.0,160.0,25.0,222.0,64.0,20.0,26.0,26.0,4.0,9.0,9.0,5.0,11.0,26.0,20.0,13.0,7.0,14.0,3.0,11.0,11.0,13.0,18.0,7.0,7.1,5.0,7.0,,0.0,,1.3,2.2,1.3,1.4
06-10,30.0,100.0,80.0,80.0,50.0,20.0,30.0,70.0,90.0,62.0,54.0,44.0,41.0,35.0,257.0,16.0,23.0,5.0,9.0,25.0,3.0,14.0,20.0,5.0,4.0,6.0,15.0,10.0,12.0,8.0,7.0,4.0,5.0,7.0,,0.2,,1.1,2.6,1.5,1.2
06-11,20.0,100.0,110.0,40.0,60.0,40.0,80.0,60.0,60.0,54.0,29.0,95.0,34.0,25.0,66.0,9.0,6.0,6.0,9.0,27.0,9.0,8.0,7.0,12.0,4.0,17.0,36.0,6.0,14.0,8.0,4.0,4.0,3.0,3.0,,1.2,,0.9,2.6,2.0,1.3
06-12,20.0,170.0,180.0,70.0,180.0,90.0,90.0,70.0,30.0,68.0,146.0,60.0,48.0,72.0,21.0,23.0,12.0,14.0,13.0,32.0,5.0,6.0,9.0,12.0,9.0,5.0,10.0,6.0,8.0,16.0,4.0,2.2,4.0,8.0,,1.3,,0.2,2.4,1.4,1.6
06-13,30.0,60.0,250.0,60.0,120.0,30.0,30.0,50.0,20.0,50.0,20.0,31.0,23.0,174.0,73.0,7.0,13.0,24.0,8.0,29.0,1.0,8.0,14.0,10.0,6.0,13.0,7.0,13.0,10.0,46.0,9.0,4.0,7.0,29.0,,3.0,,0.3,2.4,1.7,1.8
06-14,10.0,40.0,100.0,60.0,60.0,60.0,50.0,90.0,20.0,36.0,84.0,37.0,53.0,41.0,48.0,25.0,13.0,14.0,33.0,15.0,3.0,10.0,43.0,34.0,11.0,14.0,24.0,10.0,19.0,7.0,7.0,2.0,6.0,3.0,,2.5,,1.2,2.3,2.0,1.7
06-15,30.0,60.0,100.0,110.0,130.0,40.0,60.0,70.0,90.0,100.0,24.0,69.0,33.0,35.0,126.0,20.0,18.0,5.0,7.0,34.0,11.0,10.0,14.0,24.0,13.0,9.0,5.0,26.0,10.0,7.0,6.0,6.0,4.0,7.0,,0.4,,1.6,3.2,2.8,1.8
06-16,50.0,130.0,670.0,130.0,130.0,20.0,50.0,70.0,50.0,19.0,126.0,41.0,46.0,10.0,96.0,8.0,8.0,11.0,5.0,14.0,10.0,12.0,49.0,31.0,6.0,16.0,7.0,12.0,51.0,11.0,14.0,3.2,4.0,7.0,,1.7,,0.5,2.8,4.0,1.8
06-17,40.0,40.0,130.0,90.0,50.0,40.0,130.0,120.0,40.0,59.0,99.0,50.0,79.0,16.0,71.0,6.0,21.0,10.0,15.0,8.0,12.0,10.0,22.0,10.0,14.0,26.0,6.0,6.0,12.0,10.0,5.0,3.0,4.0,7.0,,1.9,,0.8,2.1,2.2,1.4
06-18,20.0,120.0,200.0,100.0,60.0,50.0,50.0,30.0,60.0,84.0,87.0,140.0,104.0,155.0,34.0,8.0,11.0,4.0,7.0,22.0,14.0,30.0,18.0,19.0,8.0,12.0,34.0,9.0,6.0,7.0,9.0,8.0,12.0,31.0,,1.2,,1.1,2.4,2.7,1.5
06-19,20.0,120.0,140.0,80.0,60.0,80.0,60.0,20.0,50.0,39.0,107.0,73.0,50.0,91.0,16.0,15.0,10.0,15.0,11.0,48.0,13.0,8.0,20.0,10.0,11.0,17.0,12.0,20.0,38.0,6.0,23.0,7.0,5.6,3.0,1.4,1.0,,1.6,2.1,8.2,1.6
06-20,20.0,200.0,110.0,20.0,120.0,40.0,50.0,50.0,40.0,16.0,167.0,52.0,56.0,65.0,92.0,18.0,15.0,8.0,6.0,20.0,18.0,9.0,14.0,22.0,15.0,86.0,17.0,14.0,12.0,15.0,25.0,2.0,5.0,6.0,0.6,1.3,,0.8,2.3,4.2,1.6
06-21,0.0,100.0,160.0,80.0,190.0,10.0,20.0,80.0,60.0,42.0,149.0,67.0,71.0,42.0,73.0,16.0,19.0,19.0,7.0,11.0,27.0,13.0,32.0,5.0,10.0,19.0,13.0,23.0,15.0,6.0,7.0,5.0,8.0,3.0,1.6,1.2,,0.5,2.3,1.6,1.7
06-22,0.0,350.0,190.0,120.0,50.0,130.0,40.0,60.0,40.0,26.0,55.0,28.0,111.0,32.0,17.0,6.0,12.0,21.0,28.0,5.0,39.0,11.0,54.0,18.0,16.0,17.0,17.0,39.0,15.0,4.0,11.0,4.0,29.0,3.9,1.5,4.8,,1.0,2.2,1.5,1.7
06-23,10.0,450.0,630.0,180.0,30.0,140.0,50.0,60.0,60.0,19.0,431.0,137.0,35.0,30.0,241.0,8.0,20.0,20.0,29.0,8.0,8.0,20.0,20.0,28.0,28.0,21.0,28.0,14.0,9.0,11.0,13.0,5.0,6.0,13.0,1.9,1.2,,0.3,2.3,1.7,2.0
06-24,30.0,180.0,100.0,250.0,70.0,60.0,60.0,30.0,330.0,35.0,183.0,126.0,62.0,110.0,51.0,11.0,10.0,12.0,8.0,15.0,10.0,9.0,24.0,13.0,10.0,13.0,41.0,5.0,6.0,15.0,18.0,7.0,33.0,17.0,1.0,1.3,,0.6,2.1,1.9,2.1
06-25,0.0,310.0,230.0,110.0,60.0,20.0,40.0,50.0,160.0,44.0,101.0,67.0,57.0,58.0,25.0,16.0,8.0,19.0,18.0,8.0,11.0,25.0,19.0,8.0,9.0,16.0,36.0,8.0,95.0,9.0,11.0,6.0,8.0,12.0,3.9,1.4,,0.7,2.3,3.6,2.1
06-26,20.0,500.0,320.0,80.0,90.0,10.0,60.0,20.0,40.0,103.0,87.0,107.0,18.0,90.0,65.0,29.0,9.0,40.0,15.0,6.0,5.0,35.0,33.0,9.0,15.0,8.0,30.0,10.0,10.0,9.0,13.0,5.0,8.0,6.0,23.1,0.7,,0.1,2.4,1.8,1.8
06-27,30.0,480.0,210.0,80.0,50.0,30.0,60.0,30.0,110.0,55.0,48.0,35.0,62.0,26.0,36.0,15.0,14.0,19.0,6.0,5.0,12.0,14.0,22.0,19.0,4.0,12.0,21.0,14.0,12.0,20.0,10.0,4.0,17.0,10.0,0.7,2.0,,0.2,3.5,1.7,0.9
06-28,30.0,190.0,300.0,110.0,140.0,20.0,50.0,40.0,50.0,89.0,134.0,60.0,117.0,39.0,41.0,7.0,11.0,31.0,16.0,14.0,24.0,7.0,28.0,45.0,8.0,14.0,17.0,21.0,17.0,24.0,17.0,13.0,11.0,9.0,0.7,0.7,,1.2,2.5,1.7,1.8
06-29,30.0,160.0,180.0,150.0,80.0,100.0,10.0,40.0,80.0,106.0,54.0,49.0,58.0,47.0,59.0,5.0,9.0,36.0,12.0,9.0,9.0,13.0,11.0,19.0,8.0,5.0,11.0,22.0,21.0,16.0,11.0,20.0,10.0,8.0,1.7,0.8,,0.4,2.6,2.3,0.8
06-30,10.0,260.0,230.0,90.0,60.0,20.0,20.0,10.0,50.0,113.0,164.0,44.0,64.0,68.0,63.0,8.0,32.0,25.0,19.0,10.0,24.0,10.0,21.0,11.0,15.0,14.0,27.0,10.0,8.0,26.0,11.0,6.0,22.0,7.0,0.8,0.8,,1.1,2.2,1.8,0.8
07-01,20.0,120.0,110.0,150.0,90.0,50.0,20.0,30.0,100.0,58.0,269.0,136.0,45.0,20.0,82.0,6.0,33.0,5.0,13.0,8.0,17.0,17.0,19.0,16.0,12.0,25.0,10.0,22.0,8.0,6.0,31.0,6.0,19.0,8.0,0.9,1.8,,0.4,2.1,8.3,1.0
07-02,20.0,190.0,100.0,40.0,70.0,10.0,50.0,50.0,130.0,90.0,318.0,220.0,27.0,22.0,237.0,8.0,21.0,36.0,15.0,8.0,28.0,21.0,13.0,19.0,19.0,16.0,22.0,9.0,6.0,18.0,15.0,13.0,30.0,8.0,0.4,1.5,,0.2,2.5,2.3,1.1
07-03,20.0,180.0,180.0,50.0,20.0,150.0,80.0,40.0,80.0,142.0,39.0,32.0,41.0,78.0,29.0,5.0,21.0,12.0,8.0,12.0,22.0,14.0,17.0,22.0,15.0,29.0,8.0,7.0,22.0,9.0,4.0,7.0,15.0,5.0,0.6,0.5,,0.3,2.4,2.7,0.8
07-04,10.0,280.0,110.0,110.0,40.0,70.0,20.0,50.0,20.0,148.0,179.0,29.0,132.0,16.0,19.0,9.0,18.0,29.0,12.0,13.0,13.0,10.0,13.0,19.0,9.0,23.0,11.0,23.0,16.0,11.0,5.0,10.0,15.0,12.0,1.8,3.1,,0.7,7.0,2.8,7.0
07-05,20.0,200.0,60.0,110.0,100.0,80.0,20.0,90.0,90.0,62.0,154.0,60.0,140.0,110.0,104.0,5.0,23.0,29.0,24.0,7.0,23.0,22.0,16.0,16.0,6.0,50.0,8.0,16.0,7.0,14.0,9.0,8.0,9.0,18.0,0.9,0.6,,0.2,2.2,4.2,3.5
07-06,20.0,330.0,100.0,50.0,50.0,100.0,30.0,60.0,130.0,82.0,91.0,24.0,54.0,108.0,30.0,106.0,9.0,13.0,9.0,27.0,12.0,11.0,14.0,22.0,21.0,27.0,21.0,7.0,9.0,10.0,13.0,15.0,6.0,5.0,1.5,1.4,,1.1,2.3,2.4,2.6
07-07,20.0,450.0,190.0,20.0,30.0,30.0,120.0,90.0,130.0,103.0,40.0,20.0,48.0,21.0,42.0,1.0,27.0,8.0,11.0,10.0,24.0,6.0,53.0,15.0,14.0,20.0,8.0,16.0,8.0,8.0,9.0,6.0,14.0,8.0,1.3,1.0,,0.8,0.0,2.1,1.2
07-08,20.0,310.0,120.0,220.0,50.0,30.0,100.0,80.0,180.0,136.0,83.0,42.0,95.0,60.0,32.0,5.0,31.0,39.0,5.0,6.0,11.0,12.0,8.0,17.0,18.0,36.0,10.0,12.0,7.0,10.0,12.0,6.0,19.0,18.0,1.5,0.3,,0.1,0.0,2.6,2.6
07-09,0.0,160.0,210.0,40.0,40.0,30.0,20.0,30.0,50.0,85.0,29.0,50.0,61.0,121.0,47.0,13.0,12.0,18.0,15.0,32.0,13.0,8.0,12.0,15.0,11.0,24.0,7.0,29.0,13.0,14.0,13.0,7.0,10.0,8.0,2.5,0.3,,0.2,0.0,2.2,1.3
07-10,10.0,190.0,270.0,80.0,30.0,30.0,20.0,80.0,130.0,60.0,54.0,23.0,90.0,37.0,30.0,11.0,9.0,9.0,19.0,12.0,19.0,8.0,8.0,25.0,10.0,27.0,13.0,17.0,14.0,12.0,14.0,21.0,24.0,17.0,0.6,0.2,,0.1,2.2,1.2,1.2
07-11,60.0,620.0,60.0,190.0,120.0,30.0,30.0,80.0,40.0,56.0,22.0,35.0,39.0,16.0,11.0,16.0,10.0,10.0,6.0,11.0,5.0,9.0,8.0,15.0,31.0,16.0,7.0,12.0,22.0,12.0,21.0,7.0,12.0,13.0,0.5,0.2,,0.3,3.0,1.2,2.4
07-12,10.0,200.0,170.0,40.0,90.0,30.0,50.0,130.0,30.0,57.0,24.0,84.0,20.0,18.0,46.0,17.0,45.0,4.0,13.0,25.0,13.0,8.0,38.0,21.0,30.0,30.0,15.0,14.0,11.0,8.0,19.0,5.0,10.0,18.0,2.0,0.3,,0.2,2.7,1.2,2.9
07-13,90.0,420.0,80.0,70.0,70.0,60.0,40.0,110.0,50.0,76.0,27.0,37.0,79.0,72.0,94.0,2.0,48.0,12.0,9.0,18.0,5.0,9.0,32.0,12.0,9.0,70.0,6.0,12.0,14.0,13.0,13.0,13.0,11.0,4.0,2.4,0.9,,0.4,3.2,1.2,1.8
07-14,10.0,250.0,100.0,80.0,70.0,80.0,30.0,60.0,70.0,123.0,20.0,54.0,72.0,51.0,185.0,1.0,33.0,21.0,10.0,15.0,4.0,15.0,19.0,23.0,21.0,16.0,11.0,12.0,11.0,13.0,17.0,10.0,3.0,7.0,0.5,1.5,,0.6,2.7,1.6,1.3
07-15,40.0,140.0,120.0,10.0,130.0,80.0,40.0,70.0,130.0,283.0,18.0,36.0,32.0,29.0,76.0,3.0,13.0,19.0,14.0,7.0,8.0,13.0,15.0,10.0,10.0,13.0,10.0,15.0,30.0,16.0,10.0,6.0,26.0,17.0,1.0,0.9,,0.1,2.4,2.0,1.8
07-16,30.0,140.0,90.0,90.0,130.0,30.0,70.0,50.0,50.0,91.0,15.0,63.0,49.0,45.0,113.0,3.0,11.0,16.0,20.0,18.0,7.0,27.0,14.0,17.0,7.0,21.0,8.0,17.0,9.0,19.0,16.0,12.0,5.0,21.0,0.6,0.8,,0.7,2.4,2.0,1.3
07-17,10.0,260.0,360.0,140.0,150.0,30.0,50.0,40.0,90.0,78.0,40.0,111.0,183.0,50.0,66.0,4.0,13.0,22.0,21.0,7.0,17.0,24.0,11.0,6.0,7.0,8.0,21.0,12.0,10.0,12.0,8.0,6.0,6.0,10.0,0.9,1.1,,0.4,2.4,1.6,1.1
07-18,30.0,310.0,100.0,40.0,100.0,30.0,60.0,30.0,160.0,60.0,24.0,43.0,103.0,20.0,43.0,4.0,16.0,16.0,9.0,20.0,17.0,9.0,11.0,28.0,16.0,12.0,14.0,25.0,10.0,22.0,20.0,5.0,12.0,13.0,0.6,0.7,,,2.9,1.5,1.4
07-19,30.0,130.0,160.0,150.0,60.0,30.0,80.0,70.0,210.0,179.0,112.0,33.0,71.0,52.0,242.0,10.0,23.0,11.0,11.0,7.0,23.0,12.0,10.0,24.0,6.0,11.0,15.0,18.0,16.0,12.0,8.0,15.0,18.0,10.0,1.1,1.3,,,2.8,1.5,2.6
07-20,20.0,380.0,150.0,100.0,40.0,40.0,70.0,80.0,270.0,85.0,42.0,43.0,31.0,43.0,70.0,15.0,7.0,15.0,10.0,9.0,28.0,28.0,25.0,11.0,6.0,15.0,13.0,14.0,12.0,11.0,9.0,8.0,13.0,15.0,1.0,1.0,,,3.3,1.8,2.4
07-21,60.0,240.0,250.0,70.0,40.0,30.0,80.0,80.0,170.0,29.0,185.0,53.0,41.0,19.0,162.0,8.0,21.0,38.0,10.0,9.0,18.0,20.0,14.0,20.0,17.0,19.0,25.0,20.0,8.0,22.0,14.0,10.0,14.0,7.0,0.5,0.7,,,2.3,2.3,1.7
07-22,60.0,160.0,200.0,30.0,70.0,70.0,60.0,60.0,170.0,34.0,72.0,72.0,40.0,30.0,22.0,8.0,14.0,10.0,11.0,7.0,13.0,16.0,32.0,19.0,34.0,19.0,11.0,10.0,9.0,279.0,7.0,16.0,11.0,6.0,2.2,1.0,,,2.5,1.6,1.4
07-23,20.0,240.0,90.0,40.0,60.0,30.0,40.0,100.0,90.0,41.0,50.0,73.0,25.0,22.0,95.0,6.0,23.0,14.0,32.0,6.0,10.0,14.0,12.0,8.0,13.0,20.0,39.0,8.0,6.0,31.0,22.0,18.0,10.0,12.0,0.5,1.1,,,2.1,2.3,1.2
07-24,10.0,140.0,100.0,40.0,90.0,10.0,100.0,50.0,70.0,60.0,32.0,32.0,20.0,21.0,85.0,9.0,60.0,8.0,7.0,17.0,10.0,12.0,6.0,10.0,40.0,12.0,7.0,13.0,15.0,30.0,16.0,10.0,6.0,12.0,2.4,5.1,,,2.0,3.6,1.7
07-25,30.0,90.0,200.0,90.0,50.0,30.0,20.0,110.0,60.0,78.0,53.0,30.0,32.0,39.0,34.0,11.0,11.0,12.0,5.0,9.0,22.0,17.0,13.0,10.0,35.0,12.0,23.0,6.0,9.0,19.0,14.0,8.0,11.0,6.0,2.9,0.9,,,0.0,5.6,1.4
07-26,30.0,70.0,130.0,60.0,30.0,50.0,20.0,80.0,110.0,105.0,414.0,37.0,35.0,45.0,39.0,12.0,50.0,12.0,13.0,45.0,16.0,7.0,8.0,9.0,17.0,25.0,19.0,9.0,8.0,6.0,16.0,4.0,8.0,10.0,1.8,0.6,,,0.0,1.8,3.6
07-27,30.0,110.0,70.0,20.0,40.0,30.0,50.0,70.0,70.0,36.0,246.0,27.0,125.0,51.0,46.0,10.0,10.0,7.0,7.0,7.0,10.0,8.0,9.0,11.0,7.0,29.0,18.0,10.0,9.0,8.0,15.0,4.0,12.0,6.0,1.0,0.5,,,0.0,2.5,1.9
07-28,20.0,110.0,70.0,40.0,70.0,30.0,80.0,90.0,50.0,23.0,162.0,39.0,37.0,103.0,37.0,12.0,9.0,18.0,7.0,9.0,34.0,12.0,10.0,13.0,9.0,46.0,31.0,12.0,19.0,8.0,9.0,8.0,12.0,7.0,0.6,0.8,,,1.0,2.2,1.3
07-29,30.0,230.0,60.0,10.0,20.0,70.0,110.0,30.0,60.0,39.0,162.0,74.0,44.0,53.0,76.0,10.0,5.0,9.0,6.0,9.0,64.0,81.0,11.0,21.0,19.0,32.0,10.0,15.0,24.0,9.0,12.0,8.0,7.0,8.0,0.9,0.9,,,2.0,2.1,2.0
07-30,10.0,210.0,60.0,30.0,80.0,40.0,30.0,90.0,60.0,111.0,62.0,43.0,20.0,47.0,39.0,5.0,17.0,31.0,7.0,8.0,25.0,10.0,7.0,36.0,10.0,26.0,7.0,7.0,126.0,22.0,19.0,9.0,12.0,6.0,0.3,1.9,,,4.0,2.3,2.9
07-31,20.0,80.0,150.0,10.0,60.0,140.0,60.0,70.0,130.0,46.0,39.0,30.0,20.0,139.0,16.0,11.0,35.0,15.0,17.0,5.0,9.0,7.0,25.0,11.0,9.0,29.0,13.0,15.0,11.0,7.0,12.0,7.0,10.0,4.0,1.7,1.4,,0.1,1.0,1.6,2.9
08-01,10.0,210.0,230.0,40.0,110.0,190.0,20.0,30.0,30.0,147.0,103.0,24.0,53.0,85.0,20.0,16.0,52.0,11.0,13.0,4.0,13.0,9.0,12.0,5.0,14.0,30.0,8.0,12.0,11.0,14.0,10.0,5.0,4.0,14.0,1.9,1.6,,0.8,1.0,2.2,2.3
08-02,10.0,220.0,40.0,20.0,80.0,130.0,110.0,40.0,40.0,167.0,52.0,37.0,81.0,111.0,66.0,17.0,10.0,9.0,7.0,16.0,11.0,9.0,10.0,5.0,11.0,14.0,9.0,6.0,14.0,17.0,11.0,10.0,8.0,9.0,1.3,1.3,,1.0,0.0,11.3,3.9
08-03,20.0,100.0,140.0,20.0,40.0,20.0,40.0,80.0,60.0,49.0,56.0,41.0,46.0,20.0,28.0,14.0,14.0,21.0,19.0,9.0,17.0,9.0,5.0,16.0,10.0,16.0,19.0,5.0,18.0,11.0,18.0,9.0,11.0,7.0,2.1,0.2,,0.7,0.0,6.0,1.3
08-04,50.0,50.0,50.0,20.0,40.0,60.0,30.0,80.0,70.0,60.0,155.0,47.0,71.0,50.0,143.0,8.0,8.0,11.0,10.0,11.0,10.0,17.0,14.0,16.0,15.0,23.0,13.0,17.0,13.0,12.0,21.0,9.0,10.0,5.0,1.3,1.3,,0.5,2.0,6.3,1.7
08-05,20.0,170.0,110.0,70.0,70.0,40.0,70.0,60.0,150.0,85.0,349.0,55.0,90.0,67.0,99.0,33.0,13.0,6.0,8.0,16.0,15.0,6.0,12.0,24.0,17.0,31.0,15.0,16.0,8.0,108.0,17.0,9.0,10.0,8.0,1.8,,,0.5,2.0,2.5,1.4
08-06,20.0,230.0,60.0,60.0,70.0,70.0,60.0,60.0,40.0,62.0,236.0,68.0,41.0,30.0,97.0,25.0,10.0,4.0,10.0,12.0,11.0,10.0,62.0,8.0,9.0,21.0,11.0,15.0,8.0,22.0,15.0,13.0,7.0,9.0,2.0,,,2.1,1.0,1.8,44.1
08-07,30.0,190.0,110.0,80.0,30.0,70.0,20.0,50.0,50.0,65.0,296.0,57.0,120.0,27.0,67.0,25.0,16.0,14.0,10.0,7.0,18.0,7.0,18.0,10.0,33.0,13.0,6.0,16.0,9.0,10.0,11.0,9.0,15.0,8.0,1.3,,,0.7,3.0,1.2,1.8
08-08,60.0,240.0,30.0,40.0,40.0,40.0,40.0,40.0,100.0,130.0,142.0,62.0,45.0,21.0,34.0,8.0,43.0,9.0,8.0,22.0,9.0,9.0,6.0,13.0,15.0,34.0,12.0,8.0,8.0,7.0,10.0,11.0,36.0,10.0,0.9,,,0.4,5.0,1.4,1.3
08-09,20.0,280.0,110.0,30.0,60.0,50.0,40.0,100.0,70.0,19.0,240.0,148.0,90.0,32.0,19.0,29.0,21.0,22.0,11.0,17.0,10.0,22.0,8.0,7.0,15.0,19.0,11.0,9.0,8.0,6.0,16.0,17.0,8.0,12.0,1.3,,,0.7,1.0,1.3,1.2
08-10,30.0,70.0,100.0,40.0,90.0,40.0,40.0,30.0,60.0,65.0,35.0,66.0,109.0,65.0,25.0,23.0,36.0,8.0,11.0,39.0,27.0,14.0,30.0,11.0,31.0,9.0,16.0,17.0,12.0,12.0,12.0,5.0,13.0,9.0,1.5,,,0.9,1.0,1.5,1.4
08-11,10.0,190.0,100.0,20.0,40.0,40.0,20.0,40.0,60.0,30.0,128.0,67.0,83.0,17.0,42.0,6.0,15.0,13.0,8.0,5.0,14.0,14.0,17.0,12.0,16.0,39.0,7.0,19.0,12.0,20.0,5.0,10.0,7.0,8.0,1.0,,,0.8,2.0,3.2,1.8
08-12,20.0,120.0,70.0,40.0,100.0,50.0,40.0,50.0,70.0,42.0,148.0,26.0,94.0,45.0,81.0,21.0,22.0,8.0,8.0,11.0,18.0,26.0,8.0,9.0,43.0,20.0,13.0,11.0,10.0,15.0,8.0,8.0,9.0,8.0,0.5,,,0.3,1.0,1.5,1.3
08-13,20.0,70.0,210.0,40.0,80.0,30.0,20.0,60.0,80.0,25.0,126.0,91.0,59.0,32.0,15.0,7.0,13.0,8.0,11.0,14.0,14.0,13.0,14.0,15.0,28.0,21.0,9.0,13.0,11.0,7.0,10.0,16.0,8.0,11.0,1.2,,,0.5,1.0,4.5,1.6
08-14,0.0,340.0,110.0,110.0,80.0,20.0,50.0,60.0,100.0,41.0,349.0,70.0,118.0,44.0,27.0,8.0,17.0,8.0,13.0,24.0,12.0,14.0,9.0,25.0,49.0,27.0,35.0,11.0,12.0,23.0,15.0,9.0,5.0,15.0,1.7,,,1.4,3.0,4.1,2.5
08-15,20.0,280.0,90.0,20.0,60.0,50.0,40.0,30.0,90.0,26.0,78.0,28.0,20.0,84.0,440.0,16.0,14.0,10.0,9.0,21.0,10.0,24.0,6.0,14.0,40.0,7.0,13.0,9.0,18.0,7.0,9.0,14.0,16.0,6.0,0.5,,,1.4,0.0,1.7,2.8
08-16,10.0,130.0,50.0,20.0,70.0,40.0,30.0,70.0,80.0,29.0,66.0,78.0,26.0,21.0,385.0,16.0,31.0,14.0,7.0,10.0,8.0,38.0,10.0,9.0,14.0,7.0,17.0,10.0,18.0,13.0,11.0,8.0,12.0,19.0,2.5,,,0.4,0.0,2.7,2.5
08-17,0.0,190.0,160.0,30.0,50.0,70.0,70.0,50.0,100.0,64.0,66.0,33.0,60.0,87.0,23.0,13.0,14.0,11.0,8.0,7.0,7.0,41.0,10.0,10.0,10.0,14.0,9.0,7.0,10.0,11.0,11.0,7.0,11.0,70.0,1.9,,,0.5,1.0,2.0,3.2
08-18,30.0,360.0,190.0,30.0,30.0,70.0,50.0,60.0,120.0,64.0,151.0,42.0,70.0,78.0,17.0,6.0,15.0,8.0,5.0,20.0,38.0,24.0,10.0,12.0,8.0,28.0,12.0,8.0,11.0,13.0,18.0,10.0,6.0,7.0,4.4,,,0.8,0.0,2.0,2.5
08-19,20.0,90.0,140.0,50.0,100.0,80.0,60.0,70.0,80.0,76.0,42.0,66.0,71.0,71.0,38.0,12.0,22.0,17.0,19.0,6.0,11.0,11.0,34.0,48.0,11.0,7.0,27.0,13.0,22.0,16.0,13.0,6.0,13.0,8.0,0.2,,,0.2,0.0,1.4,2.4
08-20,20.0,160.0,80.0,20.0,30.0,80.0,30.0,50.0,40.0,101.0,35.0,143.0,34.0,63.0,37.0,14.0,16.0,14.0,7.0,14.0,13.0,13.0,12.0,12.0,13.0,11.0,18.0,9.0,12.0,14.0,7.0,7.0,8.0,9.0,0.5,,,0.8,0.0,4.3,2.1
08-21,20.0,80.0,160.0,30.0,100.0,40.0,40.0,90.0,90.0,35.0,132.0,140.0,44.0,41.0,22.0,7.0,8.0,8.0,8.0,8.0,18.0,14.0,15.0,14.0,6.0,7.0,39.0,11.0,9.0,19.0,21.0,10.0,8.0,10.0,1.0,,,1.1,0.0,12.7,2.8
08-22,0.0,150.0,210.0,30.0,40.0,60.0,30.0,60.0,210.0,246.0,242.0,68.0,38.0,53.0,143.0,21.0,10.0,10.0,14.0,14.0,23.0,30.0,35.0,8.0,21.0,30.0,9.0,16.0,15.0,16.0,22.0,11.0,8.0,10.0,0.7,,,0.4,0.0,6.1,3.7
08-23,20.0,280.0,230.0,60.0,60.0,30.0,50.0,70.0,140.0,88.0,115.0,111.0,37.0,50.0,27.0,9.0,22.0,10.0,7.0,15.0,10.0,15.0,14.0,20.0,7.0,14.0,7.0,18.0,23.0,12.0,6.0,14.0,5.0,11.0,0.7,,,0.0,0.0,5.3,1.6
08-24,0.0,30.0,250.0,50.0,50.0,120.0,20.0,50.0,220.0,28.0,36.0,55.0,27.0,164.0,111.0,8.0,14.0,12.0,9.0,7.0,8.0,12.0,11.0,9.0,14.0,12.0,60.0,7.0,8.0,7.0,10.0,15.0,7.0,4.0,1.8,1.5,,0.4,1.0,6.5,2.8
08-25,40.0,140.0,280.0,40.0,80.0,70.0,10.0,30.0,40.0,87.0,78.0,64.0,37.0,20.0,70.0,9.0,14.0,11.0,8.0,5.0,15.0,21.0,9.0,21.0,12.0,10.0,11.0,12.0,7.0,12.0,18.0,11.0,9.0,4.0,1.0,1.4,,0.4,2.0,3.5,2.6
08-26,60.0,70.0,120.0,30.0,30.0,50.0,50.0,90.0,60.0,322.0,71.0,41.0,59.0,59.0,22.0,9.0,8.0,13.0,9.0,10.0,12.0,20.0,13.0,27.0,6.0,21.0,9.0,19.0,5.0,20.0,17.0,8.0,20.0,3.0,1.4,0.7,,0.4,2.0,1.7,1.9
08-27,30.0,150.0,220.0,40.0,60.0,80.0,70.0,60.0,40.0,60.0,40.0,70.0,126.0,99.0,37.0,11.0,26.0,10.0,9.0,12.0,10.0,13.0,10.0,17.0,4.0,10.0,8.0,8.0,20.0,21.0,16.0,44.0,20.0,12.0,0.9,1.0,,1.8,2.0,2.6,0.7
08-28,20.0,80.0,80.0,50.0,90.0,50.0,30.0,60.0,60.0,42.0,77.0,41.0,131.0,160.0,50.0,16.0,12.0,8.0,32.0,8.0,9.0,11.0,9.0,16.0,13.0,19.0,18.0,11.0,11.0,69.0,10.0,12.0,17.0,15.0,0.5,0.9,,0.0,0.5,5.0,1.6
08-29,40.0,580.0,130.0,70.0,100.0,50.0,30.0,110.0,50.0,205.0,119.0,95.0,64.0,30.0,56.0,14.0,17.0,12.0,29.0,10.0,12.0,33.0,7.0,12.0,34.0,20.0,16.0,18.0,32.0,15.0,16.0,11.0,14.0,9.0,0.4,0.6,,,2.0,3.8,1.3
08-30,20.0,420.0,320.0,90.0,80.0,70.0,40.0,190.0,160.0,72.0,58.0,160.0,81.0,45.0,37.0,21.0,6.0,18.0,15.0,20.0,15.0,11.0,8.0,6.0,17.0,31.0,17.0,27.0,9.0,12.0,10.0,9.0,13.0,13.0,0.7,1.9,,,0.8,6.0,0.8
08-31,10.0,100.0,120.0,40.0,160.0,50.0,60.0,100.0,90.0,48.0,38.0,162.0,21.0,63.0,51.0,32.0,8.0,28.0,12.0,5.0,12.0,7.0,6.0,35.0,30.0,19.0,6.0,9.0,9.0,15.0,8.0,20.0,8.0,6.0,1.9,2.8,,,4.1,15.0,0.8
09-01,20.0,200.0,210.0,110.0,130.0,70.0,20.0,60.0,100.0,175.0,48.0,55.0,66.0,41.0,35.0,22.0,11.0,9.0,8.0,19.0,10.0,17.0,23.0,21.0,10.0,30.0,7.0,13.0,8.0,13.0,9.0,15.0,4.0,7.0,2.9,0.4,,,1.0,2.7,0.3
09-02,10.0,100.0,330.0,90.0,70.0,20.0,30.0,150.0,150.0,136.0,28.0,78.0,94.0,273.0,34.0,12.0,10.0,9.0,6.0,6.0,11.0,6.0,12.0,18.0,26.0,24.0,6.0,11.0,12.0,15.0,9.0,11.0,11.0,5.0,3.8,0.4,,,1.0,10.8,0.3
09-03,40.0,150.0,180.0,340.0,80.0,70.0,20.0,70.0,60.0,142.0,66.0,150.0,56.0,273.0,73.0,21.0,10.0,9.0,19.0,5.0,15.0,11.0,6.0,20.0,6.0,8.0,12.0,56.0,14.0,15.0,19.0,7.0,5.0,8.0,2.4,0.3,,,3.0,1.4,0.4
09-04,30.0,180.0,100.0,70.0,70.0,50.0,10.0,40.0,40.0,212.0,51.0,144.0,52.0,48.0,67.0,18.0,19.0,5.0,16.0,8.0,24.0,12.0,10.0,29.0,4.0,14.0,34.0,10.0,20.0,8.0,12.0,7.0,9.0,13.0,1.0,0.6,,,3.0,2.5,0.6
09-05,100.0,140.0,80.0,130.0,110.0,100.0,40.0,100.0,90.0,99.0,21.0,115.0,49.0,36.0,20.0,10.0,10.0,9.0,7.0,12.0,24.0,9.0,9.0,93.0,20.0,35.0,11.0,7.0,7.0,12.0,18.0,6.0,8.0,13.0,1.8,1.2,,,2.0,2.5,0.3
09-06,10.0,80.0,80.0,180.0,40.0,100.0,40.0,110.0,60.0,59.0,75.0,85.0,29.0,30.0,94.0,17.0,9.0,6.0,7.0,14.0,27.0,17.0,5.0,12.0,15.0,19.0,31.0,6.0,10.0,38.0,9.0,13.0,5.0,12.0,1.1,1.1,,,1.0,1.5,0.4
09-07,0.0,130.0,120.0,50.0,20.0,70.0,30.0,50.0,50.0,97.0,83.0,45.0,24.0,141.0,169.0,18.0,11.0,40.0,6.0,6.0,37.0,23.0,4.0,26.0,26.0,17.0,7.0,14.0,18.0,7.0,11.0,11.0,5.0,12.0,0.6,1.3,,,1.0,1.5,0.4
09-08,10.0,190.0,130.0,10.0,40.0,30.0,70.0,40.0,100.0,45.0,201.0,29.0,108.0,106.0,82.0,10.0,16.0,27.0,7.0,40.0,19.0,10.0,7.0,10.0,62.0,65.0,8.0,9.0,10.0,7.0,13.0,15.0,14.0,11.0,0.3,1.5,,,5.0,2.5,0.0
09-09,0.0,230.0,130.0,20.0,50.0,60.0,50.0,40.0,170.0,54.0,119.0,24.0,38.0,118.0,27.0,8.0,34.0,8.0,9.0,25.0,17.0,8.0,8.0,14.0,17.0,11.0,6.0,7.0,20.0,14.0,37.0,13.0,10.0,7.0,0.6,1.4,,,1.0,2.4,0.0
09-10,20.0,210.0,60.0,120.0,60.0,120.0,40.0,30.0,100.0,17.0,86.0,224.0,76.0,151.0,20.0,10.0,8.0,13.0,6.0,30.0,29.0,9.0,8.0,14.0,15.0,17.0,14.0,7.0,8.0,14.0,17.0,9.0,8.0,6.0,0.5,1.0,,,2.0,1.3,0.5
09-11,30.0,80.0,160.0,130.0,60.0,60.0,20.0,110.0,30.0,50.0,310.0,68.0,68.0,64.0,75.0,11.0,9.0,13.0,6.0,11.0,33.0,21.0,10.0,9.0,13.0,13.0,18.0,18.0,15.0,16.0,12.0,7.0,6.0,31.0,0.4,1.5,,,2.0,1.3,0.3
09-12,20.0,160.0,110.0,160.0,40.0,40.0,100.0,110.0,50.0,52.0,171.0,97.0,90.0,21.0,56.0,32.0,58.0,40.0,8.0,18.0,61.0,62.0,6.0,26.0,17.0,26.0,12.0,11.0,11.0,14.0,26.0,5.0,5.0,9.0,0.3,1.0,,,2.0,0.9,0.4
09-13,0.0,150.0,120.0,310.0,50.0,50.0,90.0,40.0,30.0,57.0,117.0,56.0,39.0,29.0,22.0,29.0,10.0,14.0,13.0,19.0,62.0,20.0,6.0,9.0,14.0,21.0,8.0,19.0,45.0,12.0,16.0,6.0,7.0,9.0,0.2,0.8,,,3.0,1.2,1.7
09-14,10.0,260.0,90.0,50.0,30.0,100.0,130.0,50.0,190.0,324.0,253.0,35.0,116.0,20.0,43.0,52.0,9.0,17.0,11.0,12.0,49.0,12.0,10.0,15.0,7.0,16.0,12.0,8.0,7.0,19.0,12.0,9.0,14.0,9.0,0.3,1.1,,,2.0,4.7,0.1
09-15,20.0,220.0,260.0,130.0,30.0,100.0,80.0,40.0,90.0,111.0,99.0,29.0,46.0,302.0,46.0,12.0,19.0,13.0,24.0,15.0,15.0,12.0,8.0,13.0,10.0,25.0,75.0,9.0,31.0,7.0,13.0,5.0,6.0,7.0,0.3,0.3,,,2.0,12.8,2.3
09-16,60.0,240.0,140.0,270.0,60.0,50.0,40.0,40.0,220.0,142.0,136.0,42.0,33.0,51.0,21.0,14.0,6.0,10.0,8.0,7.0,14.0,10.0,11.0,17.0,13.0,57.0,16.0,12.0,8.0,11.0,13.0,35.0,9.0,25.0,0.4,0.5,,,1.0,1.2,0.3
09-17,100.0,1040.0,80.0,120.0,70.0,90.0,40.0,30.0,40.0,25.0,134.0,106.0,102.0,45.0,104.0,9.0,5.0,16.0,10.0,7.0,15.0,8.0,6.0,18.0,26.0,24.0,10.0,9.0,9.0,11.0,13.0,4.0,7.0,6.0,0.3,1.5,,,2.0,1.3,0.5
09-18,20.0,260.0,120.0,70.0,90.0,20.0,20.0,90.0,40.0,42.0,197.0,40.0,107.0,22.0,194.0,4.0,11.0,19.0,11.0,9.0,19.0,7.0,18.0,19.0,6.0,10.0,3.0,18.0,15.0,13.0,13.0,8.0,6.0,7.0,0.6,0.7,,,0.1,1.2,0.7
09-19,140.0,320.0,40.0,30.0,70.0,20.0,40.0,70.0,30.0,40.0,66.0,62.0,32.0,200.0,121.0,5.0,30.0,12.0,10.0,12.0,26.0,9.0,7.0,28.0,13.0,46.0,16.0,29.0,26.0,7.0,20.0,6.0,14.0,6.0,1.5,3.0,,,2.0,3.4,0.3
09-20,190.0,100.0,160.0,60.0,70.0,20.0,20.0,90.0,20.0,30.0,72.0,22.0,42.0,177.0,28.0,27.0,6.0,5.0,4.0,25.0,8.0,16.0,10.0,27.0,3.0,34.0,17.0,13.0,9.0,8.0,19.0,6.0,7.0,17.0,2.0,2.2,,,1.0,1.6,1.2
09-21,50.0,50.0,150.0,100.0,60.0,50.0,30.0,40.0,30.0,187.0,58.0,27.0,152.0,35.0,31.0,6.0,16.0,8.0,8.0,31.0,16.0,18.0,11.0,13.0,4.0,8.0,6.0,8.0,4.0,8.0,29.0,14.0,10.0,2.0,0.4,4.6,,,1.0,1.1,2.0
09-22,210.0,170.0,70.0,180.0,70.0,20.0,40.0,50.0,60.0,158.0,210.0,39.0,32.0,73.0,39.0,10.0,12.0,17.0,14.0,27.0,9.0,14.0,24.0,12.0,7.0,13.0,5.0,10.0,5.0,11.0,31.0,9.0,6.0,14.0,1.0,2.0,,,0.0,1.3,0.3
09-23,290.0,90.0,170.0,50.0,20.0,40.0,50.0,60.0,80.0,187.0,230.0,58.0,99.0,32.0,139.0,9.0,11.0,15.0,11.0,14.0,5.0,20.0,43.0,12.0,9.0,9.0,4.0,11.0,8.0,5.0,13.0,29.0,12.0,18.0,0.6,2.4,,,0.1,3.6,0.5
09-24,60.0,130.0,100.0,90.0,10.0,30.0,40.0,40.0,120.0,226.0,64.0,103.0,37.0,222.0,63.0,12.0,31.0,100.0,17.0,8.0,7.0,14.0,26.0,25.0,15.0,7.0,8.0,5.0,17.0,12.0,6.0,8.0,4.0,8.0,0.5,2.2,,,0.0,2.9,2.0
09-25,30.0,90.0,60.0,70.0,20.0,40.0,20.0,90.0,90.0,355.0,21.0,115.0,17.0,117.0,51.0,17.0,18.0,35.0,6.0,7.0,22.0,32.0,11.0,44.0,42.0,8.0,8.0,13.0,18.0,9.0,14.0,10.0,3.0,6.0,0.7,0.9,,1.1,0.3,2.3,3.9
09-26,130.0,120.0,80.0,120.0,100.0,110.0,30.0,50.0,30.0,208.0,37.0,238.0,31.0,105.0,53.0,25.0,10.0,7.0,8.0,7.0,16.0,14.0,6.0,16.0,23.0,21.0,12.0,10.0,14.0,10.0,8.0,8.0,4.0,4.0,0.7,1.3,,2.4,1.0,1.8,1.2
09-27,220.0,130.0,130.0,40.0,70.0,40.0,40.0,60.0,90.0,82.0,156.0,133.0,78.0,103.0,32.0,14.0,16.0,18.0,23.0,18.0,15.0,12.0,11.0,19.0,51.0,20.0,14.0,18.0,18.0,19.0,24.0,12.0,7.0,8.0,0.3,0.6,,0.7,0.0,2.0,0.5
09-28,100.0,270.0,100.0,130.0,100.0,20.0,20.0,10.0,80.0,183.0,48.0,36.0,104.0,185.0,30.0,10.0,8.0,34.0,14.0,10.0,59.0,30.0,9.0,43.0,21.0,11.0,6.0,6.0,10.0,6.0,24.0,7.0,5.0,4.0,0.8,2.2,,1.6,0.0,5.0,1.1
09-29,170.0,60.0,80.0,30.0,60.0,10.0,60.0,50.0,50.0,97.0,103.0,41.0,135.0,212.0,10.0,11.0,26.0,16.0,19.0,12.0,11.0,20.0,5.0,17.0,27.0,9.0,24.0,9.0,17.0,10.0,13.0,6.0,12.0,5.0,0.4,2.3,,0.7,0.0,1.4,0.8
09-30,160.0,600.0,30.0,40.0,60.0,90.0,70.0,40.0,60.0,44.0,103.0,44.0,80.0,51.0,41.0,5.0,9.0,28.0,14.0,17.0,24.0,15.0,11.0,21.0,24.0,9.0,7.0,7.0,15.0,16.0,11.0,13.0,7.0,1.0,0.5,1.0,,0.6,0.0,1.9,4.8
10-01,320.0,190.0,80.0,200.0,40.0,60.0,40.0,370.0,320.0,173.0,132.0,80.0,80.0,20.0,18.0,6.0,18.0,10.0,8.0,26.0,19.0,50.0,5.0,19.0,9.0,12.0,9.0,9.0,19.0,4.0,14.0,6.0,8.0,6.0,0.4,0.9,,0.6,2.0,1.5,1.1
10-02,80.0,120.0,140.0,40.0,50.0,20.0,30.0,170.0,80.0,166.0,77.0,100.0,40.0,130.0,11.0,20.0,15.0,19.0,6.0,8.0,10.0,13.0,7.0,12.0,14.0,36.0,16.0,8.0,36.0,39.0,14.0,8.0,7.0,2.0,0.7,0.8,,0.7,0.0,1.1,0.7
10-03,110.0,90.0,130.0,30.0,70.0,50.0,40.0,170.0,70.0,32.0,54.0,29.0,46.0,118.0,11.0,11.0,10.0,13.0,7.0,18.0,46.0,20.0,7.0,21.0,23.0,13.0,20.0,21.0,16.0,12.0,24.0,8.0,5.0,8.0,0.8,0.4,,2.8,0.0,2.4,0.7
10-04,200.0,70.0,110.0,90.0,60.0,50.0,80.0,160.0,80.0,35.0,62.0,80.0,51.0,24.0,18.0,26.0,15.0,10.0,14.0,31.0,31.0,12.0,10.0,42.0,26.0,13.0,5.0,8.0,5.0,7.0,10.0,10.0,10.0,3.0,1.3,1.4,,0.7,0.0,3.7,0.6
10-05,80.0,150.0,120.0,60.0,100.0,60.0,50.0,120.0,120.0,115.0,107.0,220.0,38.0,79.0,13.0,5.0,9.0,20.0,6.0,11.0,8.0,19.0,6.0,13.0,10.0,33.0,4.0,5.0,17.0,5.0,6.0,12.0,8.0,4.0,0.8,0.6,,2.6,0.0,2.6,0.9
10-06,250.0,190.0,200.0,110.0,290.0,80.0,100.0,300.0,180.0,117.0,68.0,180.0,184.0,24.0,30.0,9.0,13.0,28.0,20.0,13.0,57.0,16.0,9.0,33.0,13.0,48.0,16.0,12.0,13.0,7.0,5.0,10.0,8.0,13.0,0.7,1.2,,1.1,0.0,2.0,1.3
10-07,120.0,200.0,140.0,70.0,140.0,40.0,90.0,460.0,60.0,36.0,25.0,200.0,39.0,50.0,18.0,10.0,31.0,23.0,16.0,7.0,15.0,20.0,21.0,12.0,17.0,19.0,8.0,6.0,15.0,11.0,21.0,2.0,6.0,6.0,0.7,1.5,,0.6,0.0,7.2,1.1
10-08,180.0,80.0,290.0,70.0,140.0,30.0,60.0,210.0,30.0,97.0,20.0,43.0,68.0,51.0,17.0,17.0,11.0,7.0,12.0,8.0,9.0,8.0,48.0,13.0,15.0,27.0,4.0,18.0,9.0,8.0,6.0,8.0,9.0,8.0,1.1,2.6,,0.9,0.0,5.6,1.0
10-09,140.0,160.0,310.0,30.0,100.0,30.0,100.0,290.0,40.0,161.0,62.0,80.0,28.0,68.0,156.0,20.0,29.0,12.0,29.0,10.0,16.0,13.0,55.0,13.0,9.0,16.0,19.0,14.0,4.0,11.0,5.0,6.0,8.0,4.0,1.3,2.3,,1.7,0.0,2.8,2.1
10-10,40.0,100.0,170.0,120.0,140.0,30.0,70.0,290.0,40.0,95.0,70.0,80.0,118.0,7.0,142.0,9.0,23.0,10.0,21.0,13.0,11.0,58.0,9.0,14.0,8.0,6.0,7.0,29.0,2.0,5.0,11.0,3.0,10.0,3.0,1.9,1.1,,1.1,0.0,0.8,0.7
10-11,180.0,140.0,140.0,40.0,80.0,30.0,20.0,270.0,100.0,63.0,109.0,106.0,115.0,20.0,38.0,8.0,14.0,14.0,14.0,14.0,6.0,18.0,26.0,31.0,7.0,8.0,6.0,16.0,29.0,9.0,7.0,3.0,7.0,3.0,1.0,1.4,,1.2,2.0,1.4,0.4
10-12,30.0,160.0,140.0,110.0,70.0,30.0,50.0,160.0,60.0,130.0,56.0,40.0,46.0,18.0,28.0,9.0,19.0,14.0,25.0,21.0,5.0,11.0,12.0,31.0,8.0,39.0,9.0,26.0,12.0,5.0,8.0,5.0,8.0,7.0,1.4,1.5,,1.5,1.0,5.0,2.1
10-13,30.0,110.0,120.0,110.0,50.0,30.0,20.0,40.0,70.0,103.0,148.0,160.0,90.0,10.0,35.0,20.0,28.0,16.0,89.0,19.0,7.0,48.0,24.0,8.0,6.0,13.0,6.0,5.0,7.0,5.0,15.0,6.0,5.0,2.0,1.7,1.7,,1.9,0.0,8.5,0.9
10-14,50.0,60.0,200.0,80.0,10.0,20.0,60.0,50.0,30.0,210.0,67.0,100.0,16.0,7.0,54.0,35.0,26.0,15.0,29.0,13.0,5.0,19.0,43.0,18.0,9.0,70.0,9.0,12.0,12.0,6.0,13.0,5.0,5.0,3.0,1.0,1.5,,0.6,0.0,4.9,1.2
10-15,30.0,100.0,490.0,30.0,10.0,40.0,100.0,100.0,30.0,101.0,122.0,50.0,66.0,76.0,41.0,40.0,15.0,57.0,8.0,8.0,42.0,11.0,43.0,19.0,20.0,12.0,9.0,6.0,11.0,11.0,15.0,9.0,3.0,9.0,1.0,2.6,,2.9,2.0,4.0,0.8
10-16,50.0,80.0,60.0,80.0,30.0,40.0,110.0,50.0,60.0,76.0,126.0,100.0,49.0,7.0,4.0,17.0,10.0,37.0,9.0,6.0,48.0,31.0,42.0,16.0,19.0,18.0,14.0,19.0,19.0,14.0,9.0,7.0,11.0,5.0,2.4,1.8,,3.9,3.0,8.9,1.1
10-17,180.0,200.0,70.0,240.0,20.0,30.0,120.0,190.0,40.0,146.0,113.0,100.0,74.0,18.0,16.0,10.0,7.0,36.0,7.0,7.0,49.0,13.0,15.0,34.0,2.0,89.0,3.0,21.0,14.0,15.0,11.0,12.0,10.0,4.0,3.3,0.8,,2.4,5.0,4.8,0.8
10-18,40.0,130.0,190.0,140.0,50.0,30.0,20.0,200.0,50.0,146.0,83.0,41.0,44.0,8.0,27.0,17.0,15.0,34.0,23.0,14.0,14.0,34.0,33.0,37.0,18.0,23.0,3.0,28.0,18.0,11.0,9.0,2.6,7.0,2.0,1.4,0.4,,2.7,0.0,1.7,0.6
10-19,50.0,230.0,110.0,100.0,20.0,80.0,50.0,80.0,120.0,222.0,25.0,60.0,71.0,73.0,25.0,7.0,10.0,27.0,19.0,13.0,13.0,14.0,18.0,13.0,11.0,6.0,5.0,14.0,11.0,28.0,6.0,6.0,9.0,3.0,2.0,0.4,,2.3,1.0,10.5,0.5
10-20,80.0,160.0,370.0,130.0,60.0,60.0,40.0,160.0,90.0,154.0,60.0,180.0,59.0,54.0,38.0,41.0,10.0,12.0,11.0,13.0,27.0,17.0,19.0,27.0,4.0,6.0,12.0,11.0,10.0,22.0,12.0,16.0,13.0,5.0,0.9,1.9,,0.8,3.0,1.7,2.0
10-21,140.0,180.0,100.0,90.0,40.0,30.0,30.0,240.0,110.0,60.0,103.0,80.0,58.0,32.0,92.0,21.0,6.0,9.0,20.0,39.0,34.0,13.0,30.0,21.0,9.0,16.0,23.0,7.0,6.0,4.0,10.0,3.0,10.0,5.0,0.9,0.5,,0.8,5.0,1.4,1.0
10-22,140.0,150.0,110.0,130.0,40.0,20.0,20.0,290.0,120.0,47.0,70.0,81.0,40.0,78.0,43.0,34.0,8.0,21.0,13.0,26.0,9.0,10.0,13.0,18.0,24.0,28.0,11.0,8.0,5.0,5.0,12.0,14.0,7.0,6.0,1.0,1.4,,0.7,1.0,1.7,3.5
10-23,220.0,490.0,180.0,90.0,50.0,60.0,40.0,130.0,170.0,72.0,142.0,17.0,23.0,30.0,25.0,6.0,13.0,9.0,10.0,22.0,7.0,11.0,10.0,21.0,5.0,43.0,10.0,35.0,12.0,7.0,7.0,4.0,3.0,11.0,1.1,0.9,,1.1,1.0,3.5,2.2
10-24,160.0,100.0,40.0,260.0,50.0,40.0,90.0,50.0,130.0,64.0,292.0,48.0,95.0,48.0,82.0,12.0,17.0,11.0,6.0,18.0,7.0,18.0,12.0,13.0,18.0,20.0,15.0,15.0,36.0,8.0,13.0,5.0,3.0,8.0,1.4,0.6,,2.2,1.0,2.2,2.5
10-25,130.0,60.0,50.0,90.0,40.0,40.0,140.0,220.0,90.0,218.0,205.0,43.0,50.0,52.0,153.0,17.0,24.0,6.0,5.0,15.0,9.0,25.0,15.0,17.0,8.0,19.0,26.0,10.0,20.0,4.0,15.0,3.0,8.0,6.0,0.7,0.8,,2.2,1.0,5.6,0.4
10-26,100.0,150.0,230.0,120.0,40.0,50.0,20.0,210.0,70.0,82.0,273.0,74.0,50.0,140.0,132.0,18.0,5.0,6.0,6.0,11.0,13.0,43.0,8.0,14.0,6.0,13.0,27.0,6.0,12.0,10.0,23.0,8.0,6.0,8.0,1.1,1.1,,2.5,1.0,10.3,0.5
10-27,50.0,170.0,270.0,260.0,30.0,90.0,30.0,130.0,40.0,39.0,265.0,20.0,34.0,128.0,15.0,21.0,382.0,11.0,10.0,15.0,9.0,18.0,7.0,17.0,5.0,15.0,8.0,10.0,13.0,9.0,6.0,27.0,7.0,11.0,0.6,1.1,,2.3,0.0,1.3,2.3
10-28,60.0,500.0,160.0,140.0,60.0,80.0,30.0,290.0,120.0,72.0,230.0,34.0,20.0,40.0,15.0,13.0,10.0,8.0,6.0,12.0,7.0,8.0,6.0,34.0,3.0,9.0,15.0,18.0,25.0,6.0,18.0,6.0,4.0,9.0,1.4,3.8,,2.0,1.0,2.2,2.6
10-29,70.0,90.0,130.0,80.0,60.0,60.0,80.0,170.0,70.0,23.0,195.0,25.0,30.0,10.0,60.0,21.0,7.0,8.0,6.0,21.0,14.0,12.0,18.0,18.0,19.0,9.0,16.0,8.0,24.0,7.0,14.0,7.0,4.0,4.0,2.5,1.4,,1.1,0.0,0.9,1.4
10-30,100.0,40.0,120.0,90.0,50.0,30.0,130.0,50.0,80.0,140.0,224.0,8.0,40.0,231.0,221.0,23.0,6.0,11.0,4.0,13.0,7.0,9.0,7.0,20.0,7.0,5.0,16.0,11.0,10.0,15.0,17.0,11.0,6.0,5.0,1.8,3.3,,,1.0,1.2,1.2
10-31,130.0,180.0,90.0,30.0,90.0,20.0,50.0,230.0,110.0,130.0,38.0,43.0,84.0,86.0,40.0,13.0,9.0,12.0,11.0,10.0,7.0,5.0,10.0,8.0,33.0,6.0,8.0,5.0,16.0,6.0,11.0,8.0,7.0,5.0,1.0,0.6,,,1.0,1.8,1.4
11-01,180.0,300.0,130.0,240.0,80.0,50.0,10.0,120.0,140.0,87.0,17.0,24.0,50.0,33.0,58.0,9.0,13.0,7.0,11.0,9.0,11.0,5.0,4.0,9.0,5.0,8.0,12.0,9.0,10.0,14.0,7.0,2.0,4.0,3.0,1.0,0.6,,,0.0,4.0,5.4
11-02,160.0,180.0,160.0,60.0,70.0,40.0,40.0,90.0,30.0,66.0,23.0,43.0,18.0,146.0,17.0,10.0,28.0,12.0,8.0,34.0,26.0,20.0,5.0,14.0,4.0,10.0,13.0,9.0,12.0,8.0,9.0,5.0,4.0,4.0,0.8,0.5,,,1.0,1.4,2.4
11-03,140.0,130.0,140.0,110.0,40.0,70.0,30.0,90.0,20.0,191.0,152.0,89.0,38.0,112.0,376.0,26.0,19.0,14.0,9.0,19.0,6.0,11.0,9.0,9.0,26.0,6.0,11.0,15.0,12.0,17.0,10.0,9.0,6.0,1.8,1.1,0.6,,,0.0,6.6,5.1
11-04,310.0,230.0,180.0,100.0,30.0,50.0,20.0,220.0,40.0,212.0,89.0,52.0,50.0,52.0,145.0,13.0,5.0,42.0,16.0,18.0,21.0,20.0,22.0,10.0,13.0,6.0,4.0,11.0,4.0,23.0,10.0,9.0,5.0,3.0,0.7,0.7,,,0.0,11.9,1.9
11-05,90.0,180.0,130.0,70.0,70.0,20.0,70.0,100.0,90.0,87.0,148.0,36.0,120.0,15.0,38.0,28.0,13.0,17.0,31.0,17.0,8.0,41.0,12.0,11.0,46.0,6.0,4.0,5.0,3.0,23.0,10.0,3.0,5.0,3.0,2.2,0.7,,,2.0,4.6,1.2
11-06,160.0,80.0,270.0,90.0,80.0,40.0,40.0,40.0,110.0,111.0,21.0,61.0,100.0,61.0,147.0,17.0,6.0,7.0,7.0,10.0,17.0,12.0,5.0,21.0,26.0,9.0,4.0,21.0,5.0,20.0,10.0,3.0,11.0,5.0,1.1,1.4,,,1.0,3.3,0.8
11-07,80.0,270.0,90.0,80.0,40.0,70.0,30.0,70.0,30.0,138.0,89.0,52.0,50.0,140.0,29.0,12.0,9.0,8.0,9.0,17.0,7.0,3.0,10.0,25.0,21.0,6.0,7.0,12.0,6.0,6.0,10.0,2.0,4.0,4.0,3.6,1.7,,,1.0,6.0,0.5
11-08,50.0,230.0,170.0,70.0,40.0,40.0,20.0,100.0,40.0,193.0,156.0,50.0,33.0,120.0,23.0,11.0,8.0,2.0,5.0,9.0,5.0,7.0,8.0,23.0,13.0,5.0,12.0,14.0,5.0,4.0,7.0,2.2,11.0,1.1,,0.8,,,2.0,2.9,0.4
11-09,170.0,130.0,70.0,60.0,20.0,30.0,30.0,220.0,60.0,132.0,54.0,41.0,100.0,92.0,72.0,16.0,13.0,6.0,7.0,4.0,8.0,12.0,6.0,13.0,2.0,5.0,7.0,9.0,9.0,12.0,5.0,4.0,3.0,8.0,,0.7,,,1.0,5.7,0.2
11-10,100.0,110.0,70.0,140.0,80.0,50.0,40.0,90.0,90.0,80.0,248.0,18.0,70.0,84.0,104.0,8.0,48.0,3.0,8.0,4.0,4.0,11.0,3.0,10.0,6.0,9.0,2.0,11.0,4.0,8.0,6.0,5.5,2.5,15.0,0.7,0.7,,,1.0,6.4,0.5
11-11,140.0,180.0,110.0,80.0,70.0,20.0,50.0,50.0,60.0,138.0,119.0,13.0,60.0,95.0,94.0,13.0,17.0,3.0,9.0,11.0,10.0,15.0,6.0,11.0,5.0,9.0,2.0,4.0,6.0,9.0,5.0,6.0,2.0,8.0,2.1,0.6,,,0.0,2.7,0.4
11-12,50.0,770.0,150.0,120.0,80.0,30.0,20.0,300.0,60.0,236.0,316.0,51.0,44.0,224.0,14.0,11.0,29.0,3.0,8.0,17.0,4.0,6.0,7.0,14.0,4.0,6.0,3.0,6.0,11.0,11.0,5.0,4.0,4.0,2.0,0.7,22.4,,,1.0,10.9,1.0
11-13,50.0,140.0,170.0,80.0,60.0,30.0,100.0,160.0,40.0,384.0,123.0,85.0,78.0,56.0,38.0,7.0,18.0,7.0,7.0,22.0,7.0,10.0,9.0,7.0,4.0,5.0,4.0,7.0,12.0,4.0,5.0,3.0,4.0,3.7,1.6,1.3,,,2.0,4.7,1.1
11-14,190.0,220.0,290.0,130.0,40.0,30.0,60.0,20.0,20.0,54.0,92.0,20.0,44.0,54.0,87.0,11.0,9.0,20.0,31.0,24.0,8.0,7.0,5.0,9.0,3.0,8.0,5.0,4.0,5.0,4.0,8.0,3.0,4.0,1.0,1.1,3.6,,,2.0,3.5,0.1
11-15,80.0,60.0,190.0,290.0,50.0,50.0,40.0,90.0,80.0,218.0,187.0,34.0,80.0,57.0,62.0,38.0,8.0,4.0,24.0,15.0,6.0,33.0,5.0,8.0,7.0,9.0,5.0,11.0,18.0,4.0,8.0,2.0,6.0,2.6,0.8,0.9,,2.3,3.0,7.9,0.4
11-16,170.0,160.0,150.0,140.0,80.0,50.0,60.0,70.0,30.0,246.0,363.0,58.0,60.0,85.0,46.0,19.0,6.0,3.0,22.0,42.0,4.0,8.0,10.0,9.0,11.0,20.0,7.0,13.0,13.0,6.0,10.0,3.0,5.0,1.0,1.4,1.0,,0.7,3.0,3.2,1.3
11-17,140.0,80.0,250.0,90.0,40.0,50.0,30.0,70.0,30.0,93.0,96.0,32.0,40.0,55.0,92.0,14.0,15.0,4.0,26.0,12.0,10.0,10.0,7.0,11.0,15.0,10.0,11.0,4.0,10.0,17.0,4.0,7.0,5.0,3.0,1.5,1.7,,1.0,2.0,2.1,0.3
11-18,180.0,120.0,180.0,50.0,90.0,10.0,60.0,200.0,20.0,82.0,166.0,32.0,80.0,92.0,39.0,9.0,7.0,3.0,3.0,3.0,10.0,4.0,4.0,89.0,11.0,14.0,6.0,9.0,12.0,11.0,12.0,2.0,10.0,6.0,1.7,2.0,,1.9,1.0,3.7,1.6
11-19,160.0,140.0,100.0,140.0,30.0,20.0,40.0,260.0,80.0,148.0,47.0,473.0,30.0,120.0,109.0,15.0,12.0,2.0,7.0,29.0,41.0,8.0,15.0,20.0,6.0,10.0,7.0,10.0,14.0,9.0,6.0,2.0,9.0,4.0,1.8,0.8,,1.6,2.0,7.4,0.5
11-20,140.0,440.0,110.0,110.0,30.0,40.0,40.0,150.0,100.0,171.0,31.0,60.0,35.0,120.0,36.0,44.0,11.0,1.0,11.0,10.0,24.0,7.0,9.0,15.0,5.0,14.0,13.0,5.0,10.0,10.0,6.0,4.0,19.0,3.0,3.1,1.7,,2.8,4.0,3.5,1.4
11-21,120.0,270.0,110.0,60.0,60.0,10.0,50.0,170.0,270.0,224.0,58.0,20.0,130.0,17.0,61.0,10.0,41.0,2.0,21.0,5.0,12.0,12.0,21.0,9.0,7.0,10.0,10.0,3.0,6.0,5.0,35.0,2.0,13.0,11.0,1.8,1.5,,1.8,3.0,1.5,2.1
11-22,220.0,90.0,60.0,30.0,60.0,30.0,20.0,210.0,60.0,326.0,51.0,40.0,60.0,33.0,31.0,13.0,8.0,1.0,9.0,4.0,21.0,7.0,27.0,18.0,28.0,7.0,41.0,4.0,9.0,7.0,5.0,2.0,2.0,11.0,1.2,2.4,,1.8,0.2,1.9,1.8
11-23,50.0,120.0,90.0,30.0,120.0,30.0,30.0,160.0,50.0,253.0,74.0,160.0,61.0,8.0,225.0,9.0,7.0,1.0,9.0,11.0,4.0,2.0,8.0,12.0,6.0,27.0,3.0,4.0,8.0,4.0,3.0,11.0,14.0,11.0,0.7,3.3,,0.8,0.0,1.4,2.9
11-24,70.0,80.0,130.0,0.0,70.0,60.0,30.0,90.0,60.0,125.0,93.0,222.0,70.0,23.0,67.0,10.0,7.0,3.0,8.0,21.0,7.0,6.0,3.0,13.0,31.0,22.0,10.0,10.0,38.0,7.0,5.0,16.0,7.0,4.0,1.0,1.9,,2.0,0.0,1.0,0.4
11-25,130.0,130.0,200.0,370.0,30.0,30.0,30.0,40.0,80.0,93.0,148.0,128.0,90.0,214.0,95.0,20.0,7.0,4.0,14.0,10.0,6.0,13.0,6.0,10.0,5.0,8.0,4.0,7.0,22.0,8.0,3.0,5.0,5.0,4.0,1.0,0.9,,2.6,0.0,1.5,0.5
11-26,160.0,180.0,190.0,120.0,20.0,40.0,20.0,110.0,60.0,49.0,102.0,62.0,70.0,155.0,14.0,5.0,6.0,2.0,8.0,6.0,8.0,10.0,5.0,8.0,4.0,2.0,13.0,10.0,16.0,6.0,6.0,4.0,8.0,26.0,1.5,0.8,,2.4,0.0,1.9,0.5
11-27,180.0,110.0,140.0,100.0,60.0,70.0,60.0,180.0,120.0,324.0,30.0,80.0,70.0,205.0,58.0,30.0,5.0,1.0,12.0,9.0,9.0,11.0,22.0,11.0,7.0,5.0,5.0,9.0,7.0,9.0,6.0,6.0,7.0,4.0,1.5,0.9,,0.6,0.6,1.3,1.4
11-28,120.0,120.0,130.0,30.0,50.0,20.0,50.0,140.0,160.0,72.0,25.0,40.0,53.0,89.0,12.0,12.0,8.0,4.0,17.0,26.0,11.0,12.0,10.0,15.0,8.0,12.0,3.0,2.0,5.0,8.0,4.0,8.0,7.0,4.0,1.5,0.5,,1.5,1.0,1.5,0.9
11-29,280.0,590.0,120.0,20.0,60.0,50.0,50.0,180.0,80.0,116.0,87.0,30.0,70.0,132.0,130.0,11.0,7.0,10.0,4.0,8.0,13.0,10.0,22.0,21.0,7.0,5.0,11.0,7.0,5.0,4.0,5.0,5.0,8.0,4.0,1.1,0.9,,2.3,1.0,2.3,1.9
11-30,250.0,240.0,130.0,40.0,50.0,20.0,20.0,200.0,60.0,177.0,169.0,180.0,160.0,42.0,52.0,19.0,6.0,5.0,13.0,35.0,7.0,8.0,14.0,24.0,10.0,9.0,6.0,5.0,5.0,9.0,3.0,46.5,7.0,5.0,0.9,0.7,,2.9,1.0,2.1,3.8
12-01,50.0,140.0,120.0,30.0,20.0,40.0,30.0,80.0,180.0,332.0,104.0,220.0,100.0,34.0,44.0,10.0,9.0,3.0,6.0,24.0,10.0,27.0,9.0,20.0,12.0,10.0,8.0,2.0,9.0,8.0,4.0,6.0,12.0,6.0,1.2,1.4,,2.2,0.0,9.4,0.9
12-02,400.0,200.0,90.0,40.0,30.0,20.0,80.0,300.0,200.0,191.0,34.0,70.0,52.0,35.0,45.0,19.0,3.0,2.0,7.0,8.0,16.0,53.0,15.0,17.0,24.0,11.0,3.0,2.0,14.0,5.0,10.0,3.0,10.0,3.0,2.1,1.7,,1.7,0.0,2.8,1.6
12-03,200.0,50.0,160.0,30.0,140.0,40.0,70.0,280.0,160.0,369.0,162.0,170.0,80.0,41.0,41.0,10.0,10.0,5.0,6.0,5.0,21.0,4.0,22.0,12.0,25.0,4.0,3.0,3.0,6.0,6.0,6.0,3.0,3.0,12.0,,2.2,,1.0,0.0,5.7,2.2
12-04,80.0,110.0,110.0,30.0,30.0,60.0,60.0,210.0,270.0,361.0,341.0,118.0,180.0,54.0,38.0,8.0,6.0,7.0,5.0,5.0,24.0,5.0,6.0,32.0,36.0,19.0,8.0,7.0,5.0,6.0,7.0,2.0,4.0,5.0,,23.5,,0.3,0.0,5.7,2.5
12-05,50.0,200.0,110.0,10.0,40.0,50.0,70.0,340.0,230.0,214.0,106.0,100.0,70.0,23.0,23.0,14.0,4.0,4.0,5.0,5.0,15.0,8.0,31.0,28.0,17.0,6.0,13.0,7.0,6.0,11.0,5.0,2.0,5.0,6.0,,1.2,,1.9,0.2,2.1,1.8
12-06,90.0,610.0,110.0,0.0,30.0,70.0,40.0,230.0,120.0,107.0,83.0,108.0,200.0,63.0,21.0,6.0,6.0,24.0,8.0,12.0,16.0,5.0,16.0,13.0,7.0,3.0,9.0,4.0,13.0,4.0,5.0,3.0,4.0,1.0,,1.5,,2.1,0.2,16.2,2.7
12-07,1080.0,150.0,80.0,0.0,100.0,50.0,40.0,100.0,80.0,78.0,216.0,90.0,110.0,79.0,25.0,7.0,9.0,3.0,5.0,6.0,19.0,4.0,9.0,12.0,9.0,12.0,9.0,2.0,11.0,7.0,6.0,5.0,4.0,2.0,,2.1,,1.6,1.0,12.7,3.3
12-08,380.0,120.0,120.0,20.0,170.0,10.0,30.0,140.0,120.0,275.0,148.0,140.0,20.0,95.0,45.0,8.0,12.0,3.0,8.0,4.0,14.0,5.0,11.0,13.0,6.0,19.0,9.0,3.0,9.0,13.0,10.0,6.2,6.0,1.0,,1.6,,1.6,0.3,9.1,4.1
12-09,220.0,90.0,180.0,30.0,120.0,30.0,30.0,130.0,120.0,91.0,152.0,60.0,60.0,49.0,75.0,16.0,7.0,0.0,9.0,7.0,9.0,7.0,40.0,9.0,3.0,26.0,19.0,3.0,7.0,5.0,7.0,5.0,3.0,2.0,1.6,1.5,,1.8,0.0,1.9,4.4
12-10,250.0,160.0,130.0,10.0,150.0,20.0,20.0,70.0,120.0,76.0,149.0,121.0,61.0,62.0,78.0,7.0,6.0,3.0,10.0,3.0,8.0,43.0,25.0,13.0,3.0,25.0,9.0,2.0,7.0,8.0,10.0,5.0,4.0,12.8,2.0,0.6,,2.8,0.0,8.4,3.6
12-11,300.0,110.0,220.0,40.0,50.0,30.0,30.0,20.0,110.0,134.0,105.0,41.0,106.0,50.0,41.0,11.0,7.0,6.0,12.0,6.0,6.0,7.0,6.0,9.0,5.0,21.0,15.0,3.0,7.0,8.0,4.0,5.0,8.0,5.0,1.4,0.8,,3.3,0.0,4.6,4.1
12-12,360.0,110.0,90.0,50.0,40.0,20.0,50.0,50.0,50.0,80.0,41.0,66.0,58.0,57.0,24.0,4.0,9.0,5.0,13.0,7.0,13.0,6.0,11.0,8.0,12.0,39.0,9.0,7.0,13.0,26.0,5.0,6.0,8.0,10.0,0.9,1.2,,2.6,0.0,5.6,0.7
12-13,560.0,50.0,110.0,40.0,30.0,50.0,40.0,20.0,200.0,107.0,50.0,43.0,23.0,136.0,27.0,6.0,7.0,15.0,17.0,7.0,3.0,9.0,8.0,12.0,18.0,20.0,10.0,5.0,10.0,5.0,7.0,4.0,5.0,4.4,0.6,0.6,,2.2,0.0,2.3,0.5
12-14,190.0,100.0,160.0,60.0,20.0,40.0,80.0,80.0,200.0,332.0,35.0,97.0,55.0,25.0,43.0,7.0,5.0,6.0,13.0,5.0,5.0,10.0,6.0,13.0,9.0,6.0,9.0,3.0,7.0,26.0,11.0,2.0,6.0,8.0,0.9,0.3,,2.7,0.4,3.1,0.6
12-15,420.0,90.0,50.0,40.0,100.0,60.0,110.0,90.0,90.0,146.0,97.0,70.0,31.0,48.0,101.0,16.0,3.0,7.0,14.0,6.0,12.0,8.0,5.0,17.0,3.0,14.0,11.0,5.0,10.0,21.0,6.0,3.0,5.8,5.0,1.3,1.4,,2.3,1.5,1.8,1.0
12-16,310.0,140.0,100.0,50.0,110.0,110.0,140.0,230.0,170.0,78.0,108.0,114.0,54.0,38.0,74.0,7.0,10.0,4.0,29.0,7.0,8.0,8.0,10.0,8.0,9.0,17.0,8.0,11.0,5.0,6.0,6.0,3.0,3.0,5.0,1.3,0.8,,1.5,0.9,1.9,0.5
12-17,250.0,160.0,80.0,60.0,100.0,100.0,170.0,180.0,190.0,87.0,70.0,96.0,30.0,107.0,85.0,6.0,5.0,10.0,23.0,17.0,11.0,10.0,5.0,11.0,22.0,9.0,14.0,4.0,7.0,8.0,7.0,5.0,4.0,7.0,1.8,0.8,,0.6,0.9,4.8,0.7
12-18,200.0,130.0,80.0,190.0,50.0,60.0,180.0,190.0,250.0,138.0,52.0,57.0,63.0,266.0,69.0,32.0,6.0,5.0,8.0,8.0,5.0,25.0,5.0,11.0,15.0,8.0,6.0,5.0,7.0,8.0,5.0,2.3,2.0,9.2,0.3,1.5,,2.3,3.0,2.9,0.2
12-19,200.0,150.0,190.0,80.0,20.0,60.0,90.0,80.0,150.0,212.0,46.0,31.0,185.0,191.0,67.0,16.0,10.0,3.0,1.0,4.0,10.0,26.0,6.0,19.0,38.0,9.0,7.0,5.0,6.0,5.0,7.0,3.0,2.0,1.1,0.3,0.7,,2.9,0.3,3.0,0.4
12-20,120.0,140.0,130.0,40.0,30.0,90.0,80.0,170.0,130.0,203.0,39.0,30.0,83.0,191.0,75.0,7.0,13.0,5.0,3.0,6.0,18.0,14.0,6.0,12.0,16.0,20.0,10.0,4.0,4.0,6.0,5.0,4.0,4.0,1.0,0.1,0.7,,1.0,0.6,6.7,0.3
12-21,190.0,150.0,60.0,20.0,40.0,60.0,80.0,150.0,30.0,345.0,25.0,96.0,70.0,41.0,110.0,3.0,8.0,4.0,6.0,5.0,9.0,9.0,3.0,11.0,16.0,7.0,10.0,4.0,4.0,10.0,4.0,3.0,4.0,1.8,0.0,1.6,,0.6,0.5,5.7,0.9
12-22,660.0,130.0,30.0,20.0,50.0,60.0,80.0,70.0,60.0,300.0,11.0,79.0,81.0,15.0,84.0,17.0,7.0,5.0,9.0,5.0,16.0,4.0,4.0,11.0,4.0,14.0,4.0,5.0,8.0,6.0,4.0,2.0,3.0,3.0,0.0,5.1,,1.1,0.1,13.1,1.8
12-23,70.0,60.0,50.0,40.0,50.0,90.0,40.0,30.0,50.0,107.0,21.0,194.0,68.0,126.0,35.0,38.0,5.0,6.0,2.0,9.0,32.0,11.0,5.0,10.0,11.0,6.0,4.0,4.0,4.0,4.0,3.0,6.0,6.0,4.0,0.5,0.5,1.0,0.3,0.5,4.9,0.7
12-24,180.0,140.0,40.0,50.0,40.0,50.0,100.0,30.0,120.0,158.0,54.0,82.0,61.0,43.0,90.0,27.0,8.0,11.0,12.0,18.0,8.0,10.0,7.0,12.0,5.0,13.0,17.0,14.0,9.0,5.0,2.0,6.0,3.0,2.0,0.0,0.7,0.5,1.6,0.4,1.7,0.7
12-25,140.0,110.0,140.0,80.0,100.0,50.0,60.0,330.0,80.0,193.0,32.0,150.0,66.0,71.0,47.0,27.0,9.0,8.0,9.0,10.0,7.0,11.0,2.0,9.0,10.0,8.0,6.0,2.0,6.0,4.0,4.0,9.0,2.0,3.0,0.0,0.9,1.4,1.3,0.9,1.7,1.7
12-26,270.0,100.0,110.0,170.0,70.0,50.0,30.0,200.0,70.0,145.0,33.0,53.0,75.0,61.0,42.0,20.0,7.0,10.0,8.0,16.0,6.0,9.0,7.0,15.0,21.0,12.0,6.0,2.0,6.0,6.0,4.0,5.0,4.0,4.0,0.5,1.0,13.3,3.1,0.2,5.8,1.4
12-27,180.0,150.0,60.0,80.0,80.0,70.0,50.0,310.0,180.0,187.0,42.0,140.0,96.0,35.0,82.0,15.0,4.0,11.0,13.0,27.0,12.0,12.0,9.0,2.0,16.0,7.0,7.0,10.0,5.0,6.0,4.0,6.0,5.0,8.0,0.0,0.7,0.8,3.5,0.4,1.5,2.1
12-28,200.0,70.0,90.0,150.0,20.0,50.0,20.0,300.0,260.0,173.0,52.0,130.0,54.0,70.0,23.0,18.0,26.0,3.0,8.0,11.0,7.0,14.0,48.0,7.0,7.0,8.0,2.0,5.0,8.0,8.0,6.0,6.0,3.0,6.0,0.0,2.7,4.5,3.1,0.4,1.1,1.1
12-29,380.0,90.0,100.0,110.0,50.0,90.0,70.0,540.0,180.0,91.0,48.0,82.0,29.0,93.0,44.0,16.0,11.0,5.0,18.0,14.0,15.0,10.0,15.0,6.0,4.0,9.0,7.0,6.0,6.0,9.0,4.0,6.0,3.9,10.0,0.3,1.1,1.9,3.1,0.2,2.4,1.2
12-30,220.0,80.0,120.0,110.0,140.0,60.0,70.0,190.0,610.0,119.0,195.0,100.0,49.0,80.0,18.0,11.0,8.0,3.0,13.0,22.0,17.0,2.0,5.0,7.0,3.0,8.0,9.0,11.0,8.0,6.0,5.0,12.0,3.0,5.2,0.4,0.8,4.3,1.9,0.2,1.9,0.8
12-31,660.0,90.0,180.0,160.0,30.0,70.0,60.0,90.0,320.0,257.0,123.0,24.0,61.0,34.0,214.0,11.0,13.0,22.0,7.0,15.0,25.0,7.0,4.0,6.0,6.0,5.0,7.0,7.0,6.0,6.0,4.0,3.0,2.0,3.0,4.6,1.7,4.1,1.9,0.5,1.2,1.1
