\relax 
\providecommand\hyper@newdestlabel[2]{}
\providecommand\HyperFirstAtBeginDocument{\AtBeginDocument}
\HyperFirstAtBeginDocument{\ifx\hyper@anchor\@undefined
\global\let\oldcontentsline\contentsline
\gdef\contentsline#1#2#3#4{\oldcontentsline{#1}{#2}{#3}}
\global\let\oldnewlabel\newlabel
\gdef\newlabel#1#2{\newlabelxx{#1}#2}
\gdef\newlabelxx#1#2#3#4#5#6{\oldnewlabel{#1}{{#2}{#3}}}
\AtEndDocument{\ifx\hyper@anchor\@undefined
\let\contentsline\oldcontentsline
\let\newlabel\oldnewlabel
\fi}
\fi}
\global\let\hyper@last\relax 
\gdef\HyperFirstAtBeginDocument#1{#1}
\providecommand\HyField@AuxAddToFields[1]{}
\providecommand\HyField@AuxAddToCoFields[2]{}
\@writefile{toc}{\contentsline {section}{\numberline {0.1}Overview}{1}{section.0.1}\protected@file@percent }
\@writefile{toc}{\contentsline {section}{\numberline {0.2}Introduction}{1}{section.0.2}\protected@file@percent }
\@writefile{toc}{\contentsline {section}{\numberline {0.3}EPA Air Pollution Example}{1}{section.0.3}\protected@file@percent }
\@writefile{toc}{\contentsline {section}{\numberline {0.4}Outdoor Ambient Air Quality Monitoring}{2}{section.0.4}\protected@file@percent }
\@writefile{toc}{\contentsline {section}{\numberline {0.5}Carbon Monoxide}{2}{section.0.5}\protected@file@percent }
\@writefile{toc}{\contentsline {section}{\numberline {0.6}PM 2.5}{3}{section.0.6}\protected@file@percent }
\@writefile{toc}{\contentsline {section}{\numberline {0.7}SO2}{3}{section.0.7}\protected@file@percent }
\@writefile{toc}{\contentsline {section}{\numberline {0.8}Data Extraction}{3}{section.0.8}\protected@file@percent }
\@writefile{toc}{\contentsline {section}{\numberline {0.9}File Merging and Filtering}{4}{section.0.9}\protected@file@percent }
\@writefile{toc}{\contentsline {section}{\numberline {0.10}Duplication}{4}{section.0.10}\protected@file@percent }
\@writefile{toc}{\contentsline {section}{\numberline {0.11}Imputation}{4}{section.0.11}\protected@file@percent }
\@writefile{toc}{\contentsline {section}{\numberline {0.12}Denver County Colorado}{5}{section.0.12}\protected@file@percent }
\@writefile{toc}{\contentsline {section}{\numberline {0.13}Carbon Monoxide}{5}{section.0.13}\protected@file@percent }
\@writefile{toc}{\contentsline {section}{\numberline {0.14}PM 2.5}{6}{section.0.14}\protected@file@percent }
\@writefile{toc}{\contentsline {section}{\numberline {0.15}SO2}{6}{section.0.15}\protected@file@percent }
\@writefile{toc}{\contentsline {section}{\numberline {0.16}Functional Data in R}{7}{section.0.16}\protected@file@percent }
\@writefile{toc}{\contentsline {section}{\numberline {0.17}Functional Plots}{7}{section.0.17}\protected@file@percent }
\@writefile{toc}{\contentsline {section}{\numberline {0.18}FANOVA}{8}{section.0.18}\protected@file@percent }
\@writefile{toc}{\contentsline {section}{\numberline {0.19}Carbon Monoxide I}{8}{section.0.19}\protected@file@percent }
\@writefile{toc}{\contentsline {section}{\numberline {0.20}Carbon Monoxide III}{8}{section.0.20}\protected@file@percent }
\@writefile{toc}{\contentsline {section}{\numberline {0.21}PM 2.5 I}{9}{section.0.21}\protected@file@percent }
\@writefile{toc}{\contentsline {section}{\numberline {0.22}PM 2.5 III}{9}{section.0.22}\protected@file@percent }
\@writefile{toc}{\contentsline {section}{\numberline {0.23}SO2 I}{9}{section.0.23}\protected@file@percent }
\@writefile{toc}{\contentsline {section}{\numberline {0.24}SO2 III}{10}{section.0.24}\protected@file@percent }
\@writefile{toc}{\contentsline {section}{\numberline {0.25}Functional Data Theory}{10}{section.0.25}\protected@file@percent }
\@writefile{toc}{\contentsline {section}{\numberline {0.26}Random Function}{10}{section.0.26}\protected@file@percent }
\newlabel{f1}{{1}{10}{Random Function}{equation.0.26.1}{}}
\newlabel{f1@cref}{{[equation][1][0]1}{[1][10][]10}}
\@writefile{toc}{\contentsline {section}{\numberline {0.27}Mean and Covariance Functions}{11}{section.0.27}\protected@file@percent }
\newlabel{f2}{{2}{11}{Mean and Covariance Functions}{equation.0.27.2}{}}
\newlabel{f2@cref}{{[equation][2][0]2}{[1][10][]11}}
\@writefile{toc}{\contentsline {section}{\numberline {0.28}Covariance Function}{11}{section.0.28}\protected@file@percent }
\@writefile{toc}{\contentsline {section}{\numberline {0.29}Eigenfunctions and Eigenvalues}{11}{section.0.29}\protected@file@percent }
\newlabel{phi1}{{3}{11}{Eigenfunctions and Eigenvalues}{equation.0.29.3}{}}
\newlabel{phi1@cref}{{[equation][3][0]3}{[1][11][]11}}
\newlabel{ph1}{{4}{11}{Eigenfunctions and Eigenvalues}{equation.0.29.4}{}}
\newlabel{ph1@cref}{{[equation][4][0]4}{[1][11][]11}}
\@writefile{toc}{\contentsline {section}{\numberline {0.30}Karhunan-Lo/'eve Expansion}{12}{section.0.30}\protected@file@percent }
\newlabel{xide1}{{5}{12}{Karhunan-Lo/'eve Expansion}{equation.0.30.5}{}}
\newlabel{xide1@cref}{{[equation][5][0]5}{[1][12][]12}}
\newlabel{xide2}{{6}{12}{Karhunan-Lo/'eve Expansion}{equation.0.30.6}{}}
\newlabel{xide2@cref}{{[equation][6][0]6}{[1][12][]12}}
\@writefile{toc}{\contentsline {section}{\numberline {0.31}Functional Principal Component Analysis}{12}{section.0.31}\protected@file@percent }
\@writefile{toc}{\contentsline {section}{\numberline {0.32}Mean and Covariance Estimation}{12}{section.0.32}\protected@file@percent }
\@writefile{toc}{\contentsline {section}{\numberline {0.33}FPCA Approximation}{13}{section.0.33}\protected@file@percent }
\@writefile{toc}{\contentsline {section}{\numberline {0.34}Explanation of Variance}{13}{section.0.34}\protected@file@percent }
\newlabel{crow}{{7}{13}{Explanation of Variance}{equation.0.34.7}{}}
\newlabel{crow@cref}{{[equation][7][0]7}{[1][13][]13}}
\@writefile{toc}{\contentsline {section}{\numberline {0.35}Conclusion}{14}{section.0.35}\protected@file@percent }
\gdef \@abspage@last{14}
